<?xml version="1.0" encoding="ISO-8859-1"?>
<!-- Generator: PDFTron PDF2SVG Converter (DEMO VERSION) -->
<svg id="svgRoot" version="1.0" baseProfile="Full" viewBox="0 0 1750 2450" xmlns="http://www.w3.org/2000/svg" xmlns:xlink="http://www.w3.org/1999/xlink" xmlns:cs="http://www.pdftron.com/pdf2svg" xml:space="preserve">
<defs>
<font horiz-adv-x="0"><font-face 
  font-family="fnt0"
  units-per-em="1000"
  ascent="1065"
  descent="-210"
/>
<missing-glyph horiz-adv-x="0"/>
<glyph unicode="." horiz-adv-x="170" d="M80,-0L90,-0L90,80L80,80 Z"/>
<glyph unicode="0" horiz-adv-x="605" d="M515,200C515,75,438,-1,302,-1C167,-1,90,75,90,200L90,500C90,625,167,701,303,701C438,701,515,625,515,500 ZM525,500C525,631,444,710,303,710C161,710,80,631,80,500L80,200C80,69,161,-10,302,-10C444,-10,525,69,525,200 Z"/>
<glyph unicode="2" horiz-adv-x="585" d="M501,542C501,652,416,710,293,710C185,710,114,668,90,587L90,700L80,700L80,490L90,490L90,519C90,639,164,701,293,701C411,701,491,645,491,542C491,478,459,418,409,364L80,9L80,-0L525,-0L525,9L93,9L416,358C465,410,501,476,501,542 Z"/>
<glyph unicode="7" horiz-adv-x="505" d="M144,-0L155,-0L475,691L475,700L30,700L30,525L40,525L40,691L464,691 Z"/>
</font>
<font horiz-adv-x="0"><font-face 
  font-family="fnt1"
  units-per-em="1000"
  ascent="975"
  descent="-217"
/>
<missing-glyph horiz-adv-x="0"/>
<glyph unicode=" " horiz-adv-x="278" d="M0 0 Z"/>
<glyph unicode="A" horiz-adv-x="685" d="M249,276L342,538L344,538L434,276 ZM264,714L-6,-0L152,-0L208,159L475,159L529,-0L692,-0L425,714 Z"/>
<glyph unicode="L" horiz-adv-x="593" d="M69,714L69,-0L574,-0L574,132L226,132L226,714 Z"/>
<glyph unicode="a" horiz-adv-x="574" d="M48,358L190,358Q194,400,218,418Q242,436,284,436Q303,436,319,433Q336,431,348,423Q361,416,368,402Q376,389,376,366Q377,344,363,332Q349,321,325,315Q301,309,270,306Q239,303,207,298Q175,293,143,284Q112,276,87,259Q63,242,47,213Q32,185,32,141Q32,101,45,72Q59,43,83,24Q107,5,139,-4Q171,-13,208,-13Q256,-13,302,1Q348,15,382,50Q383,37,385,24Q388,12,392,-0L536,-0Q526,16,522,48Q518,80,518,115L518,384Q518,431,497,459Q476,488,443,504Q410,520,370,525Q330,531,291,531Q248,531,205,522Q163,514,129,494Q95,474,73,441Q51,408,48,358 ZM376,253L376,200Q376,188,373,168Q371,148,360,128Q349,109,326,95Q303,81,261,81Q244,81,228,84Q212,87,200,94Q188,102,181,115Q174,128,174,147Q174,167,181,180Q188,193,199,201Q211,210,226,215Q242,220,258,223Q275,226,292,228Q309,230,324,233Q340,236,353,240Q367,245,376,253 Z"/>
<glyph unicode="b" horiz-adv-x="611" d="M433,258Q433,226,426,196Q419,166,404,143Q389,120,366,106Q344,93,312,93Q281,93,258,106Q235,120,220,143Q205,166,198,196Q191,226,191,258Q191,291,198,321Q205,351,220,374Q235,397,258,410Q281,424,312,424Q344,424,366,410Q389,397,404,374Q419,351,426,321Q433,291,433,258 ZM54,714L54,-0L189,-0L189,66L191,66Q214,23,259,5Q304,-13,361,-13Q400,-13,438,3Q476,19,506,52Q537,85,556,136Q575,188,575,259Q575,330,556,381Q537,433,506,466Q476,499,438,515Q400,531,361,531Q313,531,268,512Q224,494,198,454L196,454L196,714 Z"/>
<glyph unicode="e" horiz-adv-x="574" d="M402,314L171,314Q172,329,177,348Q183,367,196,384Q210,401,232,412Q255,424,289,424Q341,424,366,396Q392,368,402,314 ZM171,224L544,224Q548,284,534,339Q520,394,488,437Q457,480,408,505Q359,531,293,531Q234,531,185,510Q137,489,102,452Q67,416,48,366Q29,316,29,258Q29,198,47,148Q66,98,100,62Q134,26,183,6Q232,-13,293,-13Q381,-13,443,27Q505,67,535,160L410,160Q403,136,372,114Q341,93,298,93Q238,93,206,124Q174,155,171,224 Z"/>
<glyph unicode="i" horiz-adv-x="258" d="M200,597L200,714L58,714L58,597 ZM58,517L58,-0L200,-0L200,517 Z"/>
<glyph unicode="o" horiz-adv-x="611" d="M180,258Q180,289,186,319Q192,349,206,372Q221,395,245,409Q269,424,305,424Q341,424,365,409Q390,395,404,372Q419,349,425,319Q431,289,431,258Q431,227,425,197Q419,168,404,144Q390,121,365,107Q341,93,305,93Q269,93,245,107Q221,121,206,144Q192,168,186,197Q180,227,180,258 ZM38,258Q38,196,57,146Q76,96,111,60Q146,25,195,6Q244,-13,305,-13Q366,-13,415,6Q465,25,500,60Q535,96,554,146Q573,196,573,258Q573,320,554,370Q535,421,500,456Q465,492,415,511Q366,531,305,531Q244,531,195,511Q146,492,111,456Q76,421,57,370Q38,320,38,258 Z"/>
<glyph unicode="p" horiz-adv-x="611" d="M315,93Q281,93,257,107Q233,121,218,143Q204,166,197,196Q191,226,191,257Q191,289,197,319Q203,349,217,372Q232,395,255,409Q279,424,314,424Q348,424,371,409Q395,395,410,371Q425,348,431,318Q438,288,438,257Q438,226,432,196Q426,166,411,143Q397,121,373,107Q350,93,315,93 ZM54,517L54,-181L196,-181L196,64L198,64Q224,26,264,6Q305,-13,353,-13Q410,-13,452,9Q495,31,523,68Q552,105,566,153Q580,201,580,253Q580,308,566,358Q552,409,523,447Q494,485,450,508Q406,531,345,531Q297,531,257,512Q217,493,191,451L189,451L189,517 Z"/>
<glyph unicode="r" horiz-adv-x="389" d="M54,517L54,-0L196,-0L196,233Q196,268,203,298Q210,328,226,350Q243,373,270,386Q297,399,336,399Q349,399,363,397Q377,396,387,394L387,526Q370,531,356,531Q329,531,304,523Q279,515,257,500Q235,486,218,465Q201,445,191,421L189,421L189,517 Z"/>
<glyph unicode="s" horiz-adv-x="537" d="M164,168L29,168Q31,116,52,81Q74,47,107,26Q141,5,184,-4Q227,-13,272,-13Q316,-13,358,-4Q401,4,434,25Q467,46,487,80Q508,115,508,166Q508,202,494,226Q480,251,457,267Q434,284,404,294Q375,304,344,311Q314,318,285,324Q256,330,233,337Q211,345,197,357Q183,369,183,388Q183,404,191,413Q199,423,210,428Q222,433,236,434Q250,436,262,436Q300,436,328,421Q356,407,359,366L494,366Q490,414,469,445Q449,477,418,496Q387,515,347,523Q308,531,266,531Q224,531,184,523Q144,516,112,497Q80,479,60,447Q41,415,41,365Q41,331,55,307Q69,284,92,268Q115,253,144,243Q174,234,205,227Q281,211,323,195Q366,179,366,147Q366,128,357,115Q348,103,334,95Q321,88,304,84Q288,81,273,81Q252,81,232,86Q213,91,198,101Q183,112,173,128Q164,145,164,168 Z"/>
<glyph unicode="t" horiz-adv-x="352" d="M234,517L234,672L92,672L92,517L6,517L6,422L92,422L92,117Q92,78,105,54Q118,30,140,17Q163,4,192,-0Q222,-5,255,-5Q276,-5,298,-4Q320,-3,338,-0L338,110Q328,108,317,107Q306,106,294,106Q258,106,246,118Q234,130,234,166L234,422L338,422L338,517 Z"/>
<glyph unicode="u" horiz-adv-x="593" d="M539,-0L539,517L397,517L397,246Q397,167,371,132Q345,98,287,98Q236,98,216,129Q196,161,196,225L196,517L54,517L54,199Q54,151,62,111Q71,72,92,44Q113,17,149,2Q186,-13,243,-13Q288,-13,331,7Q374,27,401,72L404,72L404,-0 Z"/>
</font>
<font horiz-adv-x="0"><font-face 
  font-family="fnt2"
  units-per-em="2048"
  ascent="927.73"
  descent="-218.26"
/>
<missing-glyph horiz-adv-x="0"/>
<glyph unicode="." horiz-adv-x="569" d="M178,217L392,217L392,-0L178,-0 Z"/>
<glyph unicode="c" horiz-adv-x="1024" d="M977,385L977,385Q949,183,834,77Q719,-29,528,-29Q315,-29,188,124Q61,277,61,536Q61,795,192,948Q324,1102,546,1102Q739,1102,854,996Q969,891,977,706L977,706L804,706L804,706Q793,821,724,884Q655,947,540,947Q404,947,326,837Q249,728,249,536Q249,332,321,229Q393,126,535,126Q640,126,710,193Q781,261,804,385L804,385 Z"/>
<glyph unicode="d" horiz-adv-x="1138" d="M541,-29Q326,-29,199,131Q72,292,72,565Q72,806,195,954Q318,1102,516,1102Q713,1102,828,935L842,915L842,915L842,1470L842,1470L932,1470L1022,1470L1022,1470L1022,-0L1022,-0L939,-0L855,-0L855,-0L855,146L855,146L832,113Q721,-29,541,-29 ZM551,940Q400,940,330,843Q260,747,260,537Q260,339,335,232Q411,125,551,125Q682,125,762,223Q842,322,842,484Q842,703,766,821Q691,940,551,940 Z"/>
<glyph unicode="f" horiz-adv-x="569" d="M357,921L357,921L357,-0L357,-0L267,-0L177,-0L177,-0L177,921L177,921L29,921L29,1070L177,1070L177,1070L177,1252Q177,1371,247,1431Q317,1491,457,1491L536,1488L536,1326L465,1329Q413,1329,385,1295Q357,1262,357,1200L357,1070L357,1070L536,1070L536,921 Z"/>
<glyph unicode="m" horiz-adv-x="1705" d="M133,-0L133,1070L133,1070L218,1070L304,1070L304,1070L304,911L304,911L304,911L341,959Q462,1102,630,1102Q774,1102,859,1017Q897,979,918,930L918,930L947,967Q1063,1102,1224,1102Q1392,1102,1483,1010Q1575,919,1575,751L1575,-0L1575,-0L1485,-0L1395,-0L1395,-0L1395,690Q1395,812,1345,875Q1295,938,1199,938Q1082,938,1013,847Q944,756,944,601L944,601L944,-0L944,-0L854,-0L764,-0L764,-0L764,733Q764,833,718,885Q673,938,586,938Q466,938,389,836Q313,734,313,573L313,573L313,-0L313,-0L223,-0L133,-0 Z"/>
<glyph unicode="n" horiz-adv-x="1138" d="M133,-0L133,1070L133,1070L218,1070L304,1070L304,1070L304,912L304,912L304,912L344,965Q461,1102,637,1102Q814,1102,910,1006Q1006,910,1006,733L1006,-0L1006,-0L916,-0L826,-0L826,-0L826,672Q826,813,771,875Q717,938,595,938Q465,938,389,839Q313,741,313,573L313,573L313,-0L313,-0L223,-0L133,-0 Z"/>
<glyph unicode="o" horiz-adv-x="1138" d="M569,-29Q347,-29,209,127Q72,283,72,536Q72,790,209,946Q347,1102,569,1102Q793,1102,930,946Q1067,790,1067,536Q1067,283,930,127Q793,-29,569,-29 ZM569,126Q711,126,795,237Q879,348,879,536Q879,724,795,835Q711,947,569,947Q427,947,343,835Q260,724,260,536Q260,348,343,237Q427,126,569,126 Z"/>
<glyph unicode="p" horiz-adv-x="1138" d="M119,1070L119,1070L204,1070L290,1070L290,1070L290,918L290,918L299,931Q415,1102,604,1102Q814,1102,936,957Q1059,813,1059,567Q1059,288,935,129Q812,-29,593,-29Q412,-29,305,110L299,118L299,118L299,-423L299,-423L209,-423L119,-423L119,-423 ZM584,127Q725,127,798,233Q871,340,871,544Q871,745,801,841Q731,938,585,938Q436,938,367,829Q299,720,299,484L299,484L299,484L299,484Q299,313,373,220Q447,127,584,127 Z"/>
<glyph unicode="r" horiz-adv-x="681" d="M158,-0L158,1070L158,1070L243,1070L329,1070L329,1070L329,887L329,887L329,887Q352,930,378,965Q480,1102,629,1102Q654,1102,680,1093L680,909L643,910Q497,910,417,822Q338,735,338,573L338,573L338,-0L338,-0L248,-0L158,-0 Z"/>
<glyph unicode="t" horiz-adv-x="569" d="M526,1Q434,-13,392,-13Q274,-13,225,39Q177,91,177,218L177,923L177,923L29,923L29,1070L177,1070L177,1070L177,1370L357,1370L357,1070L357,1070L526,1070L526,923L357,923L357,923L357,218Q357,182,385,161Q414,140,462,140L526,140 Z"/>
<glyph unicode="w" horiz-adv-x="1478" d="M333,-0L29,1070L29,1070L128,1070L227,1070L227,1070L432,218L432,218L432,218L641,1070L741,1070L841,1070L1056,212L1056,212L1056,212L1273,1070L1273,1070L1362,1070L1452,1070L1452,1070L1149,-0L1053,-0L956,-0L735,836L735,836L735,836L526,-0L430,-0 Z"/>
</font>
</defs>
<style type="text/css">
<![CDATA[
.ps05 { stroke:#000000;fill:none; }
.ps06 { stroke:#97B3FC;fill:none; }
.ps04 { stroke:#FFFFFF;fill:none; }
.ps00 { stroke:none;fill:#441833;fill-rule:nonzero; }
.ps03 { stroke:none;fill:#FFFFFF;fill-rule:evenodd; }
.ps01 { stroke:none;fill:#FFFFFF;fill-rule:nonzero; }
.ps02 { stroke:none;fill:none; }
.ps13 { stroke-width:0.000001; }
.ps11 { stroke-width:0.25; }
.ps10 { stroke-width:1.25; }
.ps12 { stroke-width:1; }
.ps20 { 
letter-spacing:-3.8px;word-spacing:3.8;font-family:fnt0;font-size:190px; }
.ps21 { 
letter-spacing:0px;word-spacing:0;font-family:fnt1;font-size:104px; }
.ps22 { 
letter-spacing:0px;word-spacing:0;font-family:fnt2;font-size:12.947px; }
]]>
</style>
<clipPath id="clp1" clip-rule="nonzero">
<rect x="0" y="0" width="1750" height="2450"/>
</clipPath>
<g clip-path="url(#clp1)" transform="matrix(1 0 0 -1 -0 2449.94)">
<path d="M1745.1 8.072 L4.659 8.072 L4.659 2445.9 L1745.1 2445.9 Z" class="ps00"/>
<text transform="matrix(1 0 0 -1 169.6133 329.2695)"><tspan x="0,107.35,135.85" y="-0" class="ps01 ps20">2.0</tspan><tspan x="250.8" y="-0" class="ps01 ps20">7</tspan></text>
<text transform="matrix(1 0 0 -1 169.6133 204.4697)"><tspan x="0,71.24,134.78,194.48,234.94,271.54,333.22" y="-0" class="ps01 ps21">Apertur</tspan><tspan x="371.8,431.5,460.41,522.08,581.78,645.32,708.86,749.32,809.02,845.62,909.17,949.62,976.46,1036.2" y="-0" class="ps01 ps21">e Laboratories</tspan></text>
<g id="q1" class="ps01 ps21">
<clipPath id="clp2" clip-rule="nonzero">
<path d="M4.653 2445.3 L1745.1 2445.3 L1745.1 4.654 L4.653 4.654 Z"/>
</clipPath>
<g clip-path="url(#clp2)">
<g id="q2" class="ps02">
<g id="xfrm3" transform="matrix(1 0 0 1 1076.7593 1879.915)">
<path d="M0 0 L14.277 -525.35 L254.08 -260.74 C203.18 -146.48 112.68 -53.752 0 0" class="ps03"/>
</g>
</g>
<g id="q4" class="ps02">
<g id="xfrm5" transform="matrix(1 0 0 1 1341.9897 1577.6279)">
<path d="M0 0 L-352.04 -378.44 L-3.348 -348.67 C36.898 -230.38 31.879 -121.73 0 0" class="ps03"/>
</g>
</g>
<g id="q6" class="ps02">
<g id="xfrm7" transform="matrix(1 0 0 1 827.6943 1156.2773)">
<path d="M0 0 L242.4 -215.76 C355.7 -161.85 449.7 -74.758 500.57 40.184 Z" class="ps03"/>
</g>
</g>
<g id="q8" class="ps02">
<g id="xfrm9" transform="matrix(1 0 0 1 644.9023 1274.0078)">
<path d="M0 0 L19.612 -348.94 C78.416 -371.69 133 -384.17 199.83 -384.17 C268.92 -384.17 334.91 -370.82 395.33 -346.56 Z" class="ps03"/>
</g>
</g>
<g id="q10" class="ps02">
<g id="xfrm11" transform="matrix(1 0 0 1 598.4307 1438.2109)">
<path d="M0 0 L-230.88 -238.09 C-180.22 -357.09 -86.873 -447.38 29.896 -502.12 Z" class="ps03"/>
</g>
</g>
<g id="q12" class="ps02">
<g id="xfrm13" transform="matrix(1 0 0 1 713.0625 1608.6094)">
<path d="M0 0 L-352.45 -14.5 C-374.94 -72.961 -387.27 -136.5 -387.27 -202.93 C-387.27 -264.68 -376.61 -323.94 -357.03 -379 Z" class="ps03"/>
</g>
</g>
<g id="q14" class="ps02">
<g id="xfrm15" transform="matrix(1 0 0 1 376.7871 1631.7217)">
<path d="M0 0 L509.77 17.164 L257.74 252.59 C144.87 201.47 53.319 111.63 0 0" class="ps03"/>
</g>
</g>
<g id="q16" class="ps02">
<g id="xfrm17" transform="matrix(1 0 0 1 669.1309 1898.5039)">
<path d="M0 0 L384.73 -345.66 L374.04 -3.997 C314.53 19.426 249.65 32.314 181.8 32.314 C117.88 32.314 56.633 20.913 0 0" class="ps03"/>
</g>
</g>
</g>
</g>
<g id="q18" class="ps01 ps10 ps21">
<g id="xfrm19" transform="matrix(1 0 0 1 27 2416.9365)">
<path d="M0 0 L-27 0M1695.8 0 L1722.8 0M0 -2383.9 L-27 -2383.9M1695.8 -2383.9 L1722.8 -2383.9M6 6 L6 33M6 -2389.9 L6 -2416.9M1689.8 6 L1689.8 33M1689.8 -2389.9 L1689.8 -2416.9" class="ps04"/>
</g>
</g>
<g id="q20" class="ps01 ps11 ps21">
<g id="xfrm21" transform="matrix(1 0 0 1 27 2416.9365)">
<path d="M0 0 L-27 0M1695.8 0 L1722.8 0M0 -2383.9 L-27 -2383.9M1695.8 -2383.9 L1722.8 -2383.9M6 6 L6 33M6 -2389.9 L6 -2416.9M1689.8 6 L1689.8 33M1689.8 -2389.9 L1689.8 -2416.9" class="ps05"/>
</g>
</g>
<g id="xfrm22" transform="matrix(1749.78 0 0 2449.94 0 0)">
<g id="frm23" transform="matrix(0.01 0 0 0.01 0 0)">
<text transform="matrix(1 0 0 -1 0 43.5267)"><tspan x="0,9.3475,18.695,28.043,31.642,38.84,46.038,49.638,53.237,57.548,64.746,71.945,75.544,82.017,89.216" y="-0" class="ps06 ps13 ps22">www.pdftron.com</tspan></text>
</g>
</g>
</g>
</svg>
