<?xml version="1.0" encoding="ISO-8859-1"?>
<!-- Generator: PDFTron PDF2SVG Converter (DEMO VERSION) -->
<svg id="svgRoot" version="1.0" baseProfile="Full" viewBox="0 0 1750 2450" xmlns="http://www.w3.org/2000/svg" xmlns:xlink="http://www.w3.org/1999/xlink" xmlns:cs="http://www.pdftron.com/pdf2svg" xml:space="preserve">
<defs>
<font horiz-adv-x="0"><font-face 
  font-family="fnt0"
  units-per-em="1000"
  ascent="1065"
  descent="-210"
/>
<missing-glyph horiz-adv-x="0"/>
<glyph unicode="." horiz-adv-x="170" d="M80,-0L90,-0L90,80L80,80 Z"/>
<glyph unicode="0" horiz-adv-x="605" d="M515,200C515,75,438,-1,302,-1C167,-1,90,75,90,200L90,500C90,625,167,701,303,701C438,701,515,625,515,500 ZM525,500C525,631,444,710,303,710C161,710,80,631,80,500L80,200C80,69,161,-10,302,-10C444,-10,525,69,525,200 Z"/>
<glyph unicode="2" horiz-adv-x="585" d="M501,542C501,652,416,710,293,710C185,710,114,668,90,587L90,700L80,700L80,490L90,490L90,519C90,639,164,701,293,701C411,701,491,645,491,542C491,478,459,418,409,364L80,9L80,-0L525,-0L525,9L93,9L416,358C465,410,501,476,501,542 Z"/>
</font>
<font horiz-adv-x="0"><font-face 
  font-family="fnt1"
  units-per-em="1000"
  ascent="975"
  descent="-217"
/>
<missing-glyph horiz-adv-x="0"/>
<glyph unicode=" " horiz-adv-x="278" d="M0 0 Z"/>
<glyph unicode="D" horiz-adv-x="741" d="M226,132L226,582L338,582Q396,582,435,565Q475,549,499,518Q523,487,533,443Q544,400,544,346Q544,287,529,246Q514,205,489,179Q464,154,432,143Q400,132,366,132 ZM69,714L69,-0L377,-0Q459,-0,519,27Q580,55,620,103Q661,151,681,217Q701,283,701,361Q701,450,676,516Q652,582,608,626Q565,670,505,692Q446,714,377,714 Z"/>
<glyph unicode="J" horiz-adv-x="556" d="M487,225L487,714L330,714L330,232Q330,213,328,192Q327,172,319,154Q312,137,295,126Q278,115,247,115Q219,115,201,124Q184,133,174,148Q164,164,160,186Q156,208,156,234L156,266L14,266L14,204Q14,145,34,103Q54,62,87,35Q120,9,162,-3Q204,-16,249,-16Q329,-16,376,8Q423,33,448,69Q473,106,480,148Q487,190,487,225 Z"/>
<glyph unicode="L" horiz-adv-x="593" d="M69,714L69,-0L574,-0L574,132L226,132L226,714 Z"/>
<glyph unicode="a" horiz-adv-x="574" d="M48,358L190,358Q194,400,218,418Q242,436,284,436Q303,436,319,433Q336,431,348,423Q361,416,368,402Q376,389,376,366Q377,344,363,332Q349,321,325,315Q301,309,270,306Q239,303,207,298Q175,293,143,284Q112,276,87,259Q63,242,47,213Q32,185,32,141Q32,101,45,72Q59,43,83,24Q107,5,139,-4Q171,-13,208,-13Q256,-13,302,1Q348,15,382,50Q383,37,385,24Q388,12,392,-0L536,-0Q526,16,522,48Q518,80,518,115L518,384Q518,431,497,459Q476,488,443,504Q410,520,370,525Q330,531,291,531Q248,531,205,522Q163,514,129,494Q95,474,73,441Q51,408,48,358 ZM376,253L376,200Q376,188,373,168Q371,148,360,128Q349,109,326,95Q303,81,261,81Q244,81,228,84Q212,87,200,94Q188,102,181,115Q174,128,174,147Q174,167,181,180Q188,193,199,201Q211,210,226,215Q242,220,258,223Q275,226,292,228Q309,230,324,233Q340,236,353,240Q367,245,376,253 Z"/>
<glyph unicode="c" horiz-adv-x="574" d="M406,335L545,335Q542,385,521,421Q500,458,466,482Q433,507,390,519Q348,531,302,531Q239,531,190,510Q141,489,107,451Q73,414,55,362Q38,311,38,251Q38,193,57,144Q76,96,110,61Q144,26,192,6Q241,-13,299,-13Q402,-13,468,41Q534,95,548,198L411,198Q404,150,376,121Q349,93,298,93Q265,93,242,108Q219,123,205,146Q192,170,186,199Q180,228,180,256Q180,285,186,314Q192,344,206,368Q221,393,244,408Q267,424,301,424Q392,424,406,335 Z"/>
<glyph unicode="e" horiz-adv-x="574" d="M402,314L171,314Q172,329,177,348Q183,367,196,384Q210,401,232,412Q255,424,289,424Q341,424,366,396Q392,368,402,314 ZM171,224L544,224Q548,284,534,339Q520,394,488,437Q457,480,408,505Q359,531,293,531Q234,531,185,510Q137,489,102,452Q67,416,48,366Q29,316,29,258Q29,198,47,148Q66,98,100,62Q134,26,183,6Q232,-13,293,-13Q381,-13,443,27Q505,67,535,160L410,160Q403,136,372,114Q341,93,298,93Q238,93,206,124Q174,155,171,224 Z"/>
<glyph unicode="k" horiz-adv-x="574" d="M67,714L67,-0L209,-0L209,178L264,231L406,-0L578,-0L361,327L556,517L388,517L209,331L209,714 Z"/>
<glyph unicode="n" horiz-adv-x="593" d="M54,517L54,-0L196,-0L196,271Q196,350,222,384Q248,419,306,419Q357,419,377,387Q397,356,397,292L397,-0L539,-0L539,318Q539,366,530,405Q522,445,501,472Q480,500,443,515Q407,531,350,531Q305,531,262,510Q219,490,192,445L189,445L189,517 Z"/>
<glyph unicode="o" horiz-adv-x="611" d="M180,258Q180,289,186,319Q192,349,206,372Q221,395,245,409Q269,424,305,424Q341,424,365,409Q390,395,404,372Q419,349,425,319Q431,289,431,258Q431,227,425,197Q419,168,404,144Q390,121,365,107Q341,93,305,93Q269,93,245,107Q221,121,206,144Q192,168,186,197Q180,227,180,258 ZM38,258Q38,196,57,146Q76,96,111,60Q146,25,195,6Q244,-13,305,-13Q366,-13,415,6Q465,25,500,60Q535,96,554,146Q573,196,573,258Q573,320,554,370Q535,421,500,456Q465,492,415,511Q366,531,305,531Q244,531,195,511Q146,492,111,456Q76,421,57,370Q38,320,38,258 Z"/>
<glyph unicode="r" horiz-adv-x="389" d="M54,517L54,-0L196,-0L196,233Q196,268,203,298Q210,328,226,350Q243,373,270,386Q297,399,336,399Q349,399,363,397Q377,396,387,394L387,526Q370,531,356,531Q329,531,304,523Q279,515,257,500Q235,486,218,465Q201,445,191,421L189,421L189,517 Z"/>
<glyph unicode="s" horiz-adv-x="537" d="M164,168L29,168Q31,116,52,81Q74,47,107,26Q141,5,184,-4Q227,-13,272,-13Q316,-13,358,-4Q401,4,434,25Q467,46,487,80Q508,115,508,166Q508,202,494,226Q480,251,457,267Q434,284,404,294Q375,304,344,311Q314,318,285,324Q256,330,233,337Q211,345,197,357Q183,369,183,388Q183,404,191,413Q199,423,210,428Q222,433,236,434Q250,436,262,436Q300,436,328,421Q356,407,359,366L494,366Q490,414,469,445Q449,477,418,496Q387,515,347,523Q308,531,266,531Q224,531,184,523Q144,516,112,497Q80,479,60,447Q41,415,41,365Q41,331,55,307Q69,284,92,268Q115,253,144,243Q174,234,205,227Q281,211,323,195Q366,179,366,147Q366,128,357,115Q348,103,334,95Q321,88,304,84Q288,81,273,81Q252,81,232,86Q213,91,198,101Q183,112,173,128Q164,145,164,168 Z"/>
<glyph unicode="v" horiz-adv-x="520" d="M340,-0L515,517L374,517L265,164L263,164L154,517L5,517L182,-0 Z"/>
<glyph unicode="y" horiz-adv-x="519" d="M309,-64L525,517L378,517L265,163L263,163L146,517L-5,517L176,32Q182,17,182,-0Q182,-23,168,-42Q155,-61,127,-64Q106,-65,85,-63Q64,-61,44,-59L44,-176Q66,-178,87,-179Q109,-181,131,-181Q204,-181,245,-154Q286,-127,309,-64 Z"/>
</font>
<font horiz-adv-x="0"><font-face 
  font-family="fnt2"
  units-per-em="2048"
  ascent="927.73"
  descent="-218.26"
/>
<missing-glyph horiz-adv-x="0"/>
<glyph unicode="." horiz-adv-x="569" d="M178,217L392,217L392,-0L178,-0 Z"/>
<glyph unicode="c" horiz-adv-x="1024" d="M977,385L977,385Q949,183,834,77Q719,-29,528,-29Q315,-29,188,124Q61,277,61,536Q61,795,192,948Q324,1102,546,1102Q739,1102,854,996Q969,891,977,706L977,706L804,706L804,706Q793,821,724,884Q655,947,540,947Q404,947,326,837Q249,728,249,536Q249,332,321,229Q393,126,535,126Q640,126,710,193Q781,261,804,385L804,385 Z"/>
<glyph unicode="d" horiz-adv-x="1138" d="M541,-29Q326,-29,199,131Q72,292,72,565Q72,806,195,954Q318,1102,516,1102Q713,1102,828,935L842,915L842,915L842,1470L842,1470L932,1470L1022,1470L1022,1470L1022,-0L1022,-0L939,-0L855,-0L855,-0L855,146L855,146L832,113Q721,-29,541,-29 ZM551,940Q400,940,330,843Q260,747,260,537Q260,339,335,232Q411,125,551,125Q682,125,762,223Q842,322,842,484Q842,703,766,821Q691,940,551,940 Z"/>
<glyph unicode="f" horiz-adv-x="569" d="M357,921L357,921L357,-0L357,-0L267,-0L177,-0L177,-0L177,921L177,921L29,921L29,1070L177,1070L177,1070L177,1252Q177,1371,247,1431Q317,1491,457,1491L536,1488L536,1326L465,1329Q413,1329,385,1295Q357,1262,357,1200L357,1070L357,1070L536,1070L536,921 Z"/>
<glyph unicode="m" horiz-adv-x="1705" d="M133,-0L133,1070L133,1070L218,1070L304,1070L304,1070L304,911L304,911L304,911L341,959Q462,1102,630,1102Q774,1102,859,1017Q897,979,918,930L918,930L947,967Q1063,1102,1224,1102Q1392,1102,1483,1010Q1575,919,1575,751L1575,-0L1575,-0L1485,-0L1395,-0L1395,-0L1395,690Q1395,812,1345,875Q1295,938,1199,938Q1082,938,1013,847Q944,756,944,601L944,601L944,-0L944,-0L854,-0L764,-0L764,-0L764,733Q764,833,718,885Q673,938,586,938Q466,938,389,836Q313,734,313,573L313,573L313,-0L313,-0L223,-0L133,-0 Z"/>
<glyph unicode="n" horiz-adv-x="1138" d="M133,-0L133,1070L133,1070L218,1070L304,1070L304,1070L304,912L304,912L304,912L344,965Q461,1102,637,1102Q814,1102,910,1006Q1006,910,1006,733L1006,-0L1006,-0L916,-0L826,-0L826,-0L826,672Q826,813,771,875Q717,938,595,938Q465,938,389,839Q313,741,313,573L313,573L313,-0L313,-0L223,-0L133,-0 Z"/>
<glyph unicode="o" horiz-adv-x="1138" d="M569,-29Q347,-29,209,127Q72,283,72,536Q72,790,209,946Q347,1102,569,1102Q793,1102,930,946Q1067,790,1067,536Q1067,283,930,127Q793,-29,569,-29 ZM569,126Q711,126,795,237Q879,348,879,536Q879,724,795,835Q711,947,569,947Q427,947,343,835Q260,724,260,536Q260,348,343,237Q427,126,569,126 Z"/>
<glyph unicode="p" horiz-adv-x="1138" d="M119,1070L119,1070L204,1070L290,1070L290,1070L290,918L290,918L299,931Q415,1102,604,1102Q814,1102,936,957Q1059,813,1059,567Q1059,288,935,129Q812,-29,593,-29Q412,-29,305,110L299,118L299,118L299,-423L299,-423L209,-423L119,-423L119,-423 ZM584,127Q725,127,798,233Q871,340,871,544Q871,745,801,841Q731,938,585,938Q436,938,367,829Q299,720,299,484L299,484L299,484L299,484Q299,313,373,220Q447,127,584,127 Z"/>
<glyph unicode="r" horiz-adv-x="681" d="M158,-0L158,1070L158,1070L243,1070L329,1070L329,1070L329,887L329,887L329,887Q352,930,378,965Q480,1102,629,1102Q654,1102,680,1093L680,909L643,910Q497,910,417,822Q338,735,338,573L338,573L338,-0L338,-0L248,-0L158,-0 Z"/>
<glyph unicode="t" horiz-adv-x="569" d="M526,1Q434,-13,392,-13Q274,-13,225,39Q177,91,177,218L177,923L177,923L29,923L29,1070L177,1070L177,1070L177,1370L357,1370L357,1070L357,1070L526,1070L526,923L357,923L357,923L357,218Q357,182,385,161Q414,140,462,140L526,140 Z"/>
<glyph unicode="w" horiz-adv-x="1478" d="M333,-0L29,1070L29,1070L128,1070L227,1070L227,1070L432,218L432,218L432,218L641,1070L741,1070L841,1070L1056,212L1056,212L1056,212L1273,1070L1273,1070L1362,1070L1452,1070L1452,1070L1149,-0L1053,-0L956,-0L735,836L735,836L735,836L526,-0L430,-0 Z"/>
</font>
</defs>
<style type="text/css">
<![CDATA[
.ps05 { stroke:#000000;fill:none; }
.ps06 { stroke:#97B3FC;fill:none; }
.ps04 { stroke:#FFFFFF;fill:none; }
.ps03 { stroke:none;fill:#100E0C;fill-rule:evenodd; }
.ps00 { stroke:none;fill:#AC3129;fill-rule:nonzero; }
.ps01 { stroke:none;fill:#FFFFFF;fill-rule:nonzero; }
.ps02 { stroke:none;fill:none; }
.ps13 { stroke-width:0.000001; }
.ps11 { stroke-width:0.25; }
.ps10 { stroke-width:1.25; }
.ps12 { stroke-width:1; }
.ps20 { 
letter-spacing:-3.8px;word-spacing:3.8;font-family:fnt0;font-size:190px; }
.ps21 { 
letter-spacing:0px;word-spacing:0;font-family:fnt1;font-size:104px; }
.ps22 { 
letter-spacing:0px;word-spacing:0;font-family:fnt2;font-size:12.947px; }
]]>
</style>
<clipPath id="clp1" clip-rule="nonzero">
<rect x="0" y="0" width="1750" height="2450"/>
</clipPath>
<g clip-path="url(#clp1)" transform="matrix(1 0 0 -1 -0 2449.94)">
<path d="M1745.1 8.072 L4.659 8.072 L4.659 2445.9 L1745.1 2445.9 Z" class="ps00"/>
<text transform="matrix(1 0 0 -1 169.6133 329.2695)"><tspan x="0,107.35,135.85" y="-0" class="ps01 ps20">2.0</tspan><tspan x="250.8" y="-0" class="ps01 ps20">2</tspan></text>
<text transform="matrix(1 0 0 -1 169.6133 204.4697)"><tspan x="0,77.064,136.76,190.84,244.82,273.73,331.55,395.1,456.77,516.46,572.31,601.22,662.9,726.44,786.14,845.83,905.53" y="-0" class="ps01 ps21">Davy Jones Locker</tspan></text>
<g id="q1" class="ps01 ps21">
<clipPath id="clp2" clip-rule="nonzero">
<path d="M4.653 2445.3 L1745.1 2445.3 L1745.1 4.654 L4.653 4.654 Z"/>
</clipPath>
<g clip-path="url(#clp2)">
<g id="q2" class="ps02">
<g id="xfrm3" transform="matrix(1 0 0 1 361.3848 1850.6582)">
<path d="M0 0 C62.854 70.963 171.36 77.539 242.32 14.685 C313.29 -48.169 319.86 -156.67 257.01 -227.64 C194.15 -298.6 85.649 -305.18 14.685 -242.32 C-56.279 -179.47 -62.855 -70.965 0 0M238.06 -306.59 C258.7 -294.85 277.82 -279.55 294.44 -260.79 C309.44 -243.84 321.35 -225.27 330.29 -205.72 L407.4 -274.01 L316.79 -376.32 ZM-37.429 33.15 C-118.6 -58.5 -110.12 -198.57 -18.466 -279.75 C42.691 -333.92 125.45 -348.17 197.84 -324.4 L719.44 -786.39 L698.78 -809.72 C692.75 -816.53 691.67 -826.04 695.28 -833.79 L680.8 -850.12 L679.56 -849.02 C671.4 -841.79 658.3 -839.5 648.65 -843.91 L647.3 -842.71 L641.77 -848.95 L620.78 -872.65 L616.35 -877.64 L616.98 -878.2 C611.58 -888.77 613.75 -902.05 623.06 -910.3 C632.37 -918.54 645.81 -919.09 655.66 -912.45 L656.93 -913.58 C662.32 -910.56 669.25 -911.13 674.14 -915.46 C679.03 -919.8 680.43 -926.61 678.09 -932.32 L678.76 -932.92 C671.68 -941.47 672.61 -954.19 681.02 -961.64 C689.4 -969.06 702.14 -968.46 709.8 -960.41 L711.18 -961.62 L715.15 -957.14 C717.47 -955.23 721.56 -953.02 725.43 -956.44 C731.02 -961.39 723.69 -967.85 723.69 -967.85 L724.01 -968.14 C722.7 -969.03 721.49 -970.09 720.38 -971.34 C713.48 -979.12 714.21 -991.03 721.99 -997.93 C729.78 -1004.8 741.66 -1004.1 748.55 -996.29 C749.94 -994.72 751.02 -993 751.81 -991.16 L798.99 -937.89 C805.33 -930.73 804.67 -919.76 797.51 -913.42 L758.58 -878.94 C751.42 -872.6 740.46 -873.26 734.12 -880.43 L725.72 -889.91 L713.24 -878.85 L727.72 -862.51 C734.15 -864.6 741.31 -863.65 747.01 -859.79 L752.78 -864.89 C758.14 -869.64 766.37 -869.14 771.12 -863.78 L786.82 -846.06 L838.49 -891.83 C843.03 -895.85 850.26 -895.09 854.66 -890.12 L865.26 -878.14 C869.66 -873.18 869.55 -865.91 865.01 -861.89 L346.73 -402.84 L437.34 -300.53 L940.13 -745.86 L985.04 -785.64 L1024.7 -820.78 C1029.7 -825.18 1037.3 -824.72 1041.7 -819.76 L1052.3 -807.78 C1056.7 -802.81 1056.2 -795.24 1051.2 -790.84 L1022.1 -765.07 C1024.5 -759.35 1023.1 -752.54 1018.2 -748.22 L1004.5 -736.06 L1013.3 -726.07 L1028.3 -739.34 C1033.8 -744.22 1042.2 -743.71 1047.1 -738.2 L1047.6 -737.6 L1048.2 -736.95 L1074.7 -707.01 C1082.7 -698.05 1081.8 -684.35 1072.9 -676.42 C1072 -675.65 1071.1 -674.95 1070.1 -674.32 C1069.4 -673.52 1068.7 -672.73 1067.9 -672 L1033 -641.06 C1025.4 -634.34 1013.8 -635.05 1007.1 -642.63 C1000.4 -650.22 1001.1 -661.79 1008.6 -668.51 L1032.3 -689.5 L1031.2 -690.75 C1028.4 -693.97 1026.7 -697.78 1026 -701.74 L998.55 -677.38 C993.04 -672.5 984.62 -673.01 979.73 -678.52 C978.96 -679.4 978.33 -680.31 977.82 -681.29 L977.52 -681.02 L955.42 -705.97 L949.98 -701.16 C954.65 -692.51 952.92 -681.5 945.26 -674.71 L932.79 -663.66 C925.12 -656.88 913.98 -656.49 905.94 -662.15 L344.29 -164.69 C362.33 -87.866 338.68 -3.868 275.47 52.113 C183.82 133.29 43.746 124.8 -37.429 33.15" class="ps03"/>
</g>
</g>
</g>
</g>
<g id="q4" class="ps01 ps10 ps21">
<g id="xfrm5" transform="matrix(1 0 0 1 27 2416.9365)">
<path d="M0 0 L-27 0M1695.8 0 L1722.8 0M0 -2383.9 L-27 -2383.9M1695.8 -2383.9 L1722.8 -2383.9M6 6 L6 33M6 -2389.9 L6 -2416.9M1689.8 6 L1689.8 33M1689.8 -2389.9 L1689.8 -2416.9" class="ps04"/>
</g>
</g>
<g id="q6" class="ps01 ps11 ps21">
<g id="xfrm7" transform="matrix(1 0 0 1 27 2416.9365)">
<path d="M0 0 L-27 0M1695.8 0 L1722.8 0M0 -2383.9 L-27 -2383.9M1695.8 -2383.9 L1722.8 -2383.9M6 6 L6 33M6 -2389.9 L6 -2416.9M1689.8 6 L1689.8 33M1689.8 -2389.9 L1689.8 -2416.9" class="ps05"/>
</g>
</g>
<g id="xfrm8" transform="matrix(1749.78 0 0 2449.94 0 0)">
<g id="frm9" transform="matrix(0.01 0 0 0.01 0 0)">
<text transform="matrix(1 0 0 -1 0 43.5267)"><tspan x="0,9.3475,18.695,28.043,31.642,38.84,46.038,49.638,53.237,57.548,64.746,71.945,75.544,82.017,89.216" y="-0" class="ps06 ps13 ps22">www.pdftron.com</tspan></text>
</g>
</g>
</g>
</svg>
