<?xml version="1.0" encoding="ISO-8859-1"?>
<!-- Generator: PDFTron PDF2SVG Converter (DEMO VERSION) -->
<svg id="svgRoot" version="1.0" baseProfile="Full" viewBox="0 0 1750 2450" xmlns="http://www.w3.org/2000/svg" xmlns:xlink="http://www.w3.org/1999/xlink" xmlns:cs="http://www.pdftron.com/pdf2svg" xml:space="preserve">
<defs>
<font horiz-adv-x="0"><font-face 
  font-family="fnt2"
  units-per-em="2048"
  ascent="927.73"
  descent="-218.26"
/>
<missing-glyph horiz-adv-x="0"/>
<glyph unicode="." horiz-adv-x="569" d="M178,217L392,217L392,-0L178,-0 Z"/>
<glyph unicode="c" horiz-adv-x="1024" d="M977,385L977,385Q949,183,834,77Q719,-29,528,-29Q315,-29,188,124Q61,277,61,536Q61,795,192,948Q324,1102,546,1102Q739,1102,854,996Q969,891,977,706L977,706L804,706L804,706Q793,821,724,884Q655,947,540,947Q404,947,326,837Q249,728,249,536Q249,332,321,229Q393,126,535,126Q640,126,710,193Q781,261,804,385L804,385 Z"/>
<glyph unicode="d" horiz-adv-x="1138" d="M541,-29Q326,-29,199,131Q72,292,72,565Q72,806,195,954Q318,1102,516,1102Q713,1102,828,935L842,915L842,915L842,1470L842,1470L932,1470L1022,1470L1022,1470L1022,-0L1022,-0L939,-0L855,-0L855,-0L855,146L855,146L832,113Q721,-29,541,-29 ZM551,940Q400,940,330,843Q260,747,260,537Q260,339,335,232Q411,125,551,125Q682,125,762,223Q842,322,842,484Q842,703,766,821Q691,940,551,940 Z"/>
<glyph unicode="f" horiz-adv-x="569" d="M357,921L357,921L357,-0L357,-0L267,-0L177,-0L177,-0L177,921L177,921L29,921L29,1070L177,1070L177,1070L177,1252Q177,1371,247,1431Q317,1491,457,1491L536,1488L536,1326L465,1329Q413,1329,385,1295Q357,1262,357,1200L357,1070L357,1070L536,1070L536,921 Z"/>
<glyph unicode="m" horiz-adv-x="1705" d="M133,-0L133,1070L133,1070L218,1070L304,1070L304,1070L304,911L304,911L304,911L341,959Q462,1102,630,1102Q774,1102,859,1017Q897,979,918,930L918,930L947,967Q1063,1102,1224,1102Q1392,1102,1483,1010Q1575,919,1575,751L1575,-0L1575,-0L1485,-0L1395,-0L1395,-0L1395,690Q1395,812,1345,875Q1295,938,1199,938Q1082,938,1013,847Q944,756,944,601L944,601L944,-0L944,-0L854,-0L764,-0L764,-0L764,733Q764,833,718,885Q673,938,586,938Q466,938,389,836Q313,734,313,573L313,573L313,-0L313,-0L223,-0L133,-0 Z"/>
<glyph unicode="n" horiz-adv-x="1138" d="M133,-0L133,1070L133,1070L218,1070L304,1070L304,1070L304,912L304,912L304,912L344,965Q461,1102,637,1102Q814,1102,910,1006Q1006,910,1006,733L1006,-0L1006,-0L916,-0L826,-0L826,-0L826,672Q826,813,771,875Q717,938,595,938Q465,938,389,839Q313,741,313,573L313,573L313,-0L313,-0L223,-0L133,-0 Z"/>
<glyph unicode="o" horiz-adv-x="1138" d="M569,-29Q347,-29,209,127Q72,283,72,536Q72,790,209,946Q347,1102,569,1102Q793,1102,930,946Q1067,790,1067,536Q1067,283,930,127Q793,-29,569,-29 ZM569,126Q711,126,795,237Q879,348,879,536Q879,724,795,835Q711,947,569,947Q427,947,343,835Q260,724,260,536Q260,348,343,237Q427,126,569,126 Z"/>
<glyph unicode="p" horiz-adv-x="1138" d="M119,1070L119,1070L204,1070L290,1070L290,1070L290,918L290,918L299,931Q415,1102,604,1102Q814,1102,936,957Q1059,813,1059,567Q1059,288,935,129Q812,-29,593,-29Q412,-29,305,110L299,118L299,118L299,-423L299,-423L209,-423L119,-423L119,-423 ZM584,127Q725,127,798,233Q871,340,871,544Q871,745,801,841Q731,938,585,938Q436,938,367,829Q299,720,299,484L299,484L299,484L299,484Q299,313,373,220Q447,127,584,127 Z"/>
<glyph unicode="r" horiz-adv-x="681" d="M158,-0L158,1070L158,1070L243,1070L329,1070L329,1070L329,887L329,887L329,887Q352,930,378,965Q480,1102,629,1102Q654,1102,680,1093L680,909L643,910Q497,910,417,822Q338,735,338,573L338,573L338,-0L338,-0L248,-0L158,-0 Z"/>
<glyph unicode="t" horiz-adv-x="569" d="M526,1Q434,-13,392,-13Q274,-13,225,39Q177,91,177,218L177,923L177,923L29,923L29,1070L177,1070L177,1070L177,1370L357,1370L357,1070L357,1070L526,1070L526,923L357,923L357,923L357,218Q357,182,385,161Q414,140,462,140L526,140 Z"/>
<glyph unicode="w" horiz-adv-x="1478" d="M333,-0L29,1070L29,1070L128,1070L227,1070L227,1070L432,218L432,218L432,218L641,1070L741,1070L841,1070L1056,212L1056,212L1056,212L1273,1070L1273,1070L1362,1070L1452,1070L1452,1070L1149,-0L1053,-0L956,-0L735,836L735,836L735,836L526,-0L430,-0 Z"/>
</font>
<font horiz-adv-x="0"><font-face 
  font-family="fnt0"
  units-per-em="1000"
  ascent="1065"
  descent="-210"
/>
<missing-glyph horiz-adv-x="0"/>
<glyph unicode="." horiz-adv-x="170" d="M80,-0L90,-0L90,80L80,80 Z"/>
<glyph unicode="0" horiz-adv-x="605" d="M515,200C515,75,438,-1,302,-1C167,-1,90,75,90,200L90,500C90,625,167,701,303,701C438,701,515,625,515,500 ZM525,500C525,631,444,710,303,710C161,710,80,631,80,500L80,200C80,69,161,-10,302,-10C444,-10,525,69,525,200 Z"/>
<glyph unicode="6" horiz-adv-x="596" d="M90,529C90,634,165,701,298,701C431,701,506,634,506,529L506,516L516,516L516,700L506,700L506,590C481,666,409,710,298,710C159,710,80,640,80,529L80,197C80,68,160,-10,298,-10C436,-10,516,68,516,197C516,327,436,405,298,405C187,405,114,355,90,267 ZM298,396C430,396,506,321,506,197C506,74,430,-1,298,-1C166,-1,90,74,90,197C90,321,166,396,298,396 Z"/>
</font>
<font horiz-adv-x="0"><font-face 
  font-family="fnt1"
  units-per-em="1000"
  ascent="975"
  descent="-217"
/>
<missing-glyph horiz-adv-x="0"/>
<glyph unicode="I" horiz-adv-x="295" d="M69,714L69,-0L226,-0L226,714 Z"/>
<glyph unicode="a" horiz-adv-x="574" d="M48,358L190,358Q194,400,218,418Q242,436,284,436Q303,436,319,433Q336,431,348,423Q361,416,368,402Q376,389,376,366Q377,344,363,332Q349,321,325,315Q301,309,270,306Q239,303,207,298Q175,293,143,284Q112,276,87,259Q63,242,47,213Q32,185,32,141Q32,101,45,72Q59,43,83,24Q107,5,139,-4Q171,-13,208,-13Q256,-13,302,1Q348,15,382,50Q383,37,385,24Q388,12,392,-0L536,-0Q526,16,522,48Q518,80,518,115L518,384Q518,431,497,459Q476,488,443,504Q410,520,370,525Q330,531,291,531Q248,531,205,522Q163,514,129,494Q95,474,73,441Q51,408,48,358 ZM376,253L376,200Q376,188,373,168Q371,148,360,128Q349,109,326,95Q303,81,261,81Q244,81,228,84Q212,87,200,94Q188,102,181,115Q174,128,174,147Q174,167,181,180Q188,193,199,201Q211,210,226,215Q242,220,258,223Q275,226,292,228Q309,230,324,233Q340,236,353,240Q367,245,376,253 Z"/>
<glyph unicode="d" horiz-adv-x="611" d="M421,260Q421,228,415,198Q409,168,395,144Q381,121,357,107Q334,93,299,93Q266,93,242,107Q219,122,203,145Q188,169,181,199Q174,229,174,259Q174,291,180,320Q187,350,201,373Q216,396,240,410Q264,424,299,424Q334,424,357,410Q380,396,394,373Q409,351,415,321Q421,292,421,260 ZM423,66L423,-0L558,-0L558,714L416,714L416,454L414,454Q390,492,348,511Q307,531,261,531Q204,531,161,508Q118,486,89,449Q61,412,46,363Q32,315,32,263Q32,209,46,159Q61,109,89,70Q118,32,162,9Q206,-13,264,-13Q315,-13,355,5Q396,24,421,66 Z"/>
<glyph unicode="e" horiz-adv-x="574" d="M402,314L171,314Q172,329,177,348Q183,367,196,384Q210,401,232,412Q255,424,289,424Q341,424,366,396Q392,368,402,314 ZM171,224L544,224Q548,284,534,339Q520,394,488,437Q457,480,408,505Q359,531,293,531Q234,531,185,510Q137,489,102,452Q67,416,48,366Q29,316,29,258Q29,198,47,148Q66,98,100,62Q134,26,183,6Q232,-13,293,-13Q381,-13,443,27Q505,67,535,160L410,160Q403,136,372,114Q341,93,298,93Q238,93,206,124Q174,155,171,224 Z"/>
<glyph unicode="g" horiz-adv-x="611" d="M295,122Q262,122,240,136Q218,150,204,172Q191,194,185,221Q180,249,180,277Q180,306,186,332Q193,359,207,379Q222,400,243,412Q265,424,295,424Q330,424,353,411Q376,398,390,376Q404,354,410,325Q416,297,416,265Q416,237,408,211Q401,186,386,166Q371,146,348,134Q325,122,295,122 ZM551,33L551,517L416,517L416,448L414,448Q388,493,349,512Q311,531,260,531Q206,531,164,510Q123,489,95,453Q67,418,52,371Q38,325,38,275Q38,222,50,174Q63,127,90,91Q117,56,159,35Q201,15,259,15Q306,15,348,34Q391,54,414,95L416,95L416,27Q417,-28,389,-64Q362,-100,302,-100Q264,-100,235,-84Q206,-69,196,-29L55,-29Q58,-73,79,-104Q101,-136,133,-156Q166,-176,205,-185Q245,-195,283,-195Q372,-195,425,-171Q478,-147,506,-112Q534,-78,542,-38Q551,2,551,33 Z"/>
<glyph unicode="n" horiz-adv-x="593" d="M54,517L54,-0L196,-0L196,271Q196,350,222,384Q248,419,306,419Q357,419,377,387Q397,356,397,292L397,-0L539,-0L539,318Q539,366,530,405Q522,445,501,472Q480,500,443,515Q407,531,350,531Q305,531,262,510Q219,490,192,445L189,445L189,517 Z"/>
<glyph unicode="r" horiz-adv-x="389" d="M54,517L54,-0L196,-0L196,233Q196,268,203,298Q210,328,226,350Q243,373,270,386Q297,399,336,399Q349,399,363,397Q377,396,387,394L387,526Q370,531,356,531Q329,531,304,523Q279,515,257,500Q235,486,218,465Q201,445,191,421L189,421L189,517 Z"/>
<glyph unicode="s" horiz-adv-x="537" d="M164,168L29,168Q31,116,52,81Q74,47,107,26Q141,5,184,-4Q227,-13,272,-13Q316,-13,358,-4Q401,4,434,25Q467,46,487,80Q508,115,508,166Q508,202,494,226Q480,251,457,267Q434,284,404,294Q375,304,344,311Q314,318,285,324Q256,330,233,337Q211,345,197,357Q183,369,183,388Q183,404,191,413Q199,423,210,428Q222,433,236,434Q250,436,262,436Q300,436,328,421Q356,407,359,366L494,366Q490,414,469,445Q449,477,418,496Q387,515,347,523Q308,531,266,531Q224,531,184,523Q144,516,112,497Q80,479,60,447Q41,415,41,365Q41,331,55,307Q69,284,92,268Q115,253,144,243Q174,234,205,227Q281,211,323,195Q366,179,366,147Q366,128,357,115Q348,103,334,95Q321,88,304,84Q288,81,273,81Q252,81,232,86Q213,91,198,101Q183,112,173,128Q164,145,164,168 Z"/>
</font>
</defs>
<style type="text/css">
<![CDATA[
.ps05 { stroke:#000000;fill:none; }
.ps06 { stroke:#97B3FC;fill:none; }
.ps04 { stroke:#FFFFFF;fill:none; }
.ps02 { stroke:none;fill:#100F0D;fill-rule:evenodd; }
.ps00 { stroke:none;fill:#466D5F;fill-rule:nonzero; }
.ps03 { stroke:none;fill:#FFFFFF;fill-rule:nonzero; }
.ps01 { stroke:none;fill:none; }
.ps13 { stroke-width:0.000001; }
.ps11 { stroke-width:0.25; }
.ps10 { stroke-width:1.25; }
.ps12 { stroke-width:1; }
.ps20 { 
letter-spacing:0px;word-spacing:0;font-family:fnt0;font-size:190px; }
.ps21 { 
letter-spacing:0px;word-spacing:0;font-family:fnt1;font-size:104px; }
.ps22 { 
letter-spacing:0px;word-spacing:0;font-family:fnt2;font-size:12.947px; }
]]>
</style>
<clipPath id="clp1" clip-rule="nonzero">
<rect x="0" y="0" width="1750" height="2450"/>
</clipPath>
<g clip-path="url(#clp1)" transform="matrix(1 0 0 -1 -0 2449.94)">
<path d="M1745.8 6.491 L5.289 6.491 L5.289 2444.3 L1745.8 2444.3 Z" class="ps00"/>
<g id="q1" class="ps00">
<clipPath id="clp2" clip-rule="nonzero">
<path d="M4.653 2445.3 L1745.1 2445.3 L1745.1 4.654 L4.653 4.654 Z"/>
</clipPath>
<g clip-path="url(#clp2)">
<g id="q2" class="ps01">
<g id="xfrm3" transform="matrix(1 0 0 1 1220.9839 -58.167)">
<path d="M0 0 L0 -8.412 L-1.053 -8.412 C-8.053 -21.846 0.617 -42.785 -1.053 -60.969 C-8.629 -61.443 -13.412 -64.734 -16.818 -69.379 C-48.752 -73.416 -73.668 -85.189 -106.17 -88.301 C-144.19 -91.934 -183.06 -73.648 -220.75 -72.533 C-264.46 -71.24 -299.7 -81.98 -337.43 -91.453 L-338.48 -91.453 C-382.43 -76.537 -426.5 -61.746 -470.93 -47.307 L-470.93 -38.895 C-466.43 -4.152 -461.57 30.24 -459.36 67.273 C-458.93 70.352 -456.62 71.529 -455.16 73.582 C-458.99 95.025 -451.99 123.61 -449.9 146.11 C-447.21 149.38 -441.18 149.31 -439.39 153.47 C-437.95 164 -431.7 173.48 -432.03 182.9 C-432.23 188.35 -437.06 193.36 -437.29 198.67 C-437.45 202.25 -434.07 206.81 -434.13 211.28 C-434.19 215.05 -436.46 218.42 -436.23 221.79 C-435.64 230.99 -430.4 240.68 -433.08 252.28 C-432.17 257.04 -438.33 254.74 -438.34 258.59 C-437.23 265.18 -428.79 264.46 -426.78 270.15 C-429.81 287.87 -417.46 304.75 -426.78 318.5 C-410.1 331.95 -421.61 368.48 -418.37 396.29 C-420.52 399.39 -428.07 397.1 -425.72 404.7 C-424.26 407.44 -416.8 404.19 -415.21 406.8 L-415.21 470.93 C-415.19 475.9 -424.89 475.42 -420.47 481.44 C-417.95 485.82 -409.42 477.85 -408.91 483.54 C-408.56 505.38 -397.25 524.41 -403.65 547.66 C-406.17 556.77 -426.27 570.39 -417.31 590.76 C-410.99 591.48 -413.42 583.44 -407.86 583.4 C-407.61 601.03 -408.97 620.25 -405.75 634.91 C-409.87 637.8 -419.05 635.62 -421.52 640.17 C-416.73 645.53 -406.54 645.51 -399.45 648.57 C-398.91 652.37 -404.34 653.63 -405.75 659.08 C-409.31 672.81 -404.52 696.94 -402.6 707.44 C-403.55 711.05 -411.12 708.03 -408.91 714.8 C-408.36 719.16 -399.45 715.15 -397.34 717.95 C-397.25 729.24 -399.02 736.25 -396.29 745.28 C-396.73 749.4 -404.84 745.84 -403.65 751.59 C-405.45 759.32 -396.99 762.89 -395.24 770.51 C-391.45 787.04 -398.05 808.46 -395.24 827.27 C-400.26 834.63 -403.7 838.24 -403.65 849.35 C-398.85 849.8 -392.08 848.29 -388.94 850.4 C-390.77 878.76 -386.27 917.38 -387.88 948.16 C-387.79 954.21 -399.9 948.05 -399.45 954.46 C-390.52 957.46 -386.35 965.2 -376.32 967.08 C-376 976.86 -376.17 986.16 -378.42 993.36 C-375.02 993.81 -369.33 991.97 -368.96 995.46 C-371.2 998.48 -381.29 993.64 -380.53 999.66 C-381.26 1004.2 -372.57 999.42 -374.22 1004.9 C-373.42 1025.3 -375.56 1042.8 -375.27 1062.7 C-380.61 1066 -387.58 1061 -387.88 1069 C-380.76 1071 -374.99 1074.4 -372.12 1080.6 C-372.21 1100.4 -371.98 1125.2 -372.12 1141.6 C-376.08 1145 -389.1 1139.3 -389.98 1145.8 C-382.88 1150.9 -371.71 1152 -362.66 1155.2 C-366.65 1191.4 -357.22 1221.9 -362.66 1255.1 C-363.2 1258.5 -366.16 1262 -366.86 1265.6 C-370.63 1285.1 -364.06 1309.8 -366.86 1331.8 C-362.83 1336.3 -358.04 1328.7 -355.29 1333.9 C-354.6 1373.2 -355.78 1419.6 -355.29 1462.2 C-357.94 1466.9 -362.84 1469.3 -367.91 1471.6 C-360.32 1477.5 -355.13 1486.1 -343.73 1485.3 C-345.4 1500.5 -342.7 1523.3 -343.73 1544.2 C-344.38 1548.7 -340.31 1548.5 -340.58 1552.6 C-347.01 1566.1 -342.28 1590.8 -343.73 1609.3 C-345.26 1612 -349.48 1612 -347.94 1617.8 C-349.34 1621.6 -358.96 1617.2 -357.4 1624.1 C-358.01 1631 -346.89 1626.2 -344.78 1630.4 C-343.96 1644.1 -346.22 1654.9 -345.84 1668.2 C-354.61 1680.5 -366.65 1689.4 -366.86 1710.3 C-354.89 1710 -344.31 1709.6 -334.27 1714.5 L-334.27 1732.3 C-348.02 1755.4 -352.04 1794.9 -351.09 1834.3 C-350.93 1840.7 -352.71 1849.7 -346.89 1853.2 C-342.6 1850.5 -344.83 1841.3 -342.68 1836.4 C-336.45 1836.8 -342.55 1849.6 -335.32 1849 C-328.51 1845 -328.93 1833.7 -325.86 1825.9 C-318.18 1837.1 -328.91 1848.5 -330.07 1860.6 C-331.22 1872.8 -331.03 1892.1 -320.61 1895.3 C-317.21 1889.9 -323.59 1874.8 -313.25 1876.3 C-309.36 1890.9 -313.91 1914.8 -313.25 1933.1 C-315.11 1938.2 -322.57 1937.8 -324.81 1942.6 C-321.85 1957.1 -331.35 1959.2 -336.38 1965.7 C-336.9 2085.7 -344.78 2206.3 -344.78 2325.2 C-344.78 2330.3 -347.58 2339.1 -341.63 2343.1 C-340.2 2321.4 -336.93 2301.5 -333.22 2282.1 C-329.12 2288.4 -335.88 2302.9 -331.12 2306.3 C-323.28 2303.6 -327.35 2292.8 -326.91 2286.3 C-326.41 2278.6 -323.51 2273.7 -322.71 2267.4 C-320.82 2252.4 -319.72 2232.8 -317.45 2220.1 C-314.42 2203 -314.4 2184.9 -309.05 2174.9 C-302.66 2162.9 -290.89 2159.3 -281.71 2150.7 C-283.73 2140.6 -278.96 2137.3 -276.46 2131.8 C-273.7 2097.7 -276.49 2058.2 -272.25 2025.6 C-250.83 2026.7 -225.49 2026.8 -203.93 2027.7 C-202.55 2067.3 -205.97 2111.2 -204.98 2153.9 C-193.65 2164.2 -180.27 2172.6 -178.7 2192.7 C-177.53 2195.4 -174.03 2195.8 -172.39 2198 C-168.96 2222.7 -164.28 2263.3 -161.88 2291.6 C-161.36 2297.8 -162.95 2304.5 -161.88 2310.5 C-161.32 2313.6 -158.99 2316.7 -158.73 2319.9 C-157.97 2329.3 -164.05 2342 -156.62 2349.4 C-152.94 2340.4 -153.47 2326.2 -153.47 2312.6 C-153.47 2299.3 -156.5 2283.9 -149.27 2276.8 C-147.44 2281 -148.25 2287.9 -148.21 2294.7 C-148.18 2300.6 -150.65 2309.6 -145.06 2310.5 C-140.75 2181.8 -143 2076.6 -141.91 1945.7 C-157.18 1938.9 -165.87 1925.5 -162.93 1900.5 C-150.17 1898.8 -152.17 1888.8 -149.27 1873.2 C-148.02 1866.5 -145.23 1860 -145.06 1854.3 C-144.6 1839 -147.71 1822 -139.81 1812.2 C-136.65 1828.9 -142.87 1848.7 -131.4 1856.4 C-125.24 1852.3 -129.19 1843.7 -128.24 1837.4 C-127.57 1833 -124.6 1828.4 -124.04 1823.8 C-121.5 1803 -122.31 1774.6 -125.09 1753.4 C-126.91 1739.4 -134.77 1729.2 -135.6 1717.6 C-134.77 1713.9 -127.74 1716.4 -128.24 1711.3 C-122.89 1714.9 -118.08 1709.8 -109.32 1712.4 C-105.8 1697 -101.53 1689.8 -109.32 1676.6 C-112.95 1670.5 -120.76 1668.5 -122.99 1661.9 C-125.62 1654.1 -121.17 1645 -122.99 1633.5 C-113.15 1633.3 -110.47 1622.4 -111.42 1614.6 C-116.53 1614.8 -121.47 1614.8 -124.04 1612.5 C-123.96 1566.8 -122.97 1534.6 -120.88 1490.6 C-113.72 1482.3 -100.72 1479.9 -97.762 1467.4 C-100.52 1465.6 -106.77 1467.3 -109.32 1465.3 L-109.32 1339.2 C-107.3 1334.2 -99.314 1335.2 -97.762 1329.7 C-94.775 1275.2 -102.82 1214.6 -99.861 1157.3 C-90.885 1153.7 -78.646 1153.3 -72.531 1146.8 C-74.285 1141.2 -85.869 1145.5 -90.4 1142.6 C-90.59 1128.4 -95.1 1091.9 -87.248 1076.4 C-85.008 1073.4 -74.916 1078.2 -75.684 1072.2 C-74.244 1063.7 -84.125 1066.6 -87.248 1062.7 C-89.33 1046.6 -87.846 1026.9 -89.35 1010.2 C-89.434 1006.2 -81.906 1009.9 -81.992 1006 C-87.52 997.05 -87.512 980.5 -87.248 971.28 C-81.002 966.32 -68.096 968.01 -64.121 960.77 C-72.068 959.18 -69.475 957.3 -66.223 952.36 C-68.705 950.98 -73.488 951.92 -75.684 950.26 C-77.902 921.79 -72.869 893.29 -74.635 861.96 C-71.857 859.13 -62.619 862.77 -59.916 859.86 C-62.912 839.64 -74.404 810.23 -68.326 784.17 C-66.783 777.57 -59.18 772.45 -59.916 765.25 C-58.973 760.81 -65.854 764.18 -65.174 760 C-60.232 749.82 -67.799 746.03 -66.223 733.72 C-64.742 730.65 -55.447 735.38 -55.713 730.56 C-53.545 723.14 -63.564 727.9 -62.02 721.1 C-53.945 709.21 -58.52 681.97 -59.916 666.44 C-56.217 662.08 -45.367 664.88 -44.15 658.03 C-50.982 654.58 -55.609 657.35 -56.764 650.68 C-58.529 640.47 -49.479 645.94 -46.25 638.06 C-54.693 637.04 -59.17 632.06 -56.764 620.19 C-55.764 616.28 -47.396 619.74 -48.352 613.88 C-53.59 598.68 -50.143 581.83 -53.611 566.58 C-54.861 561.09 -59.896 556.33 -60.969 550.81 C-64.121 534.63 -56.668 522.52 -56.764 506.67 C-54.314 503.51 -43.529 508.68 -44.15 502.46 C-42.436 496.54 -50.898 500.8 -49.406 495.1 C-50.227 485.5 -50.615 481.5 -46.25 476.18 C-53.482 468.63 -50.354 445.32 -49.406 433.08 C-47.693 429.89 -37.756 434.92 -38.893 428.88 C-37.652 425.43 -44.738 425.26 -47.303 422.57 C-48.73 416.21 -44.844 409.65 -47.303 405.75 C-48.039 401.17 -39.344 405.99 -40.994 400.49 C-40.123 394.37 -48.299 397.29 -47.303 391.03 L-47.303 356.35 C-40.65 344.2 -44.496 318.67 -40.994 300.63 C-38.686 295.59 -31.031 295.88 -29.436 290.12 C-43.045 285.65 -35.625 258.86 -30.484 251.23 C-32.25 249.49 -36.654 250.39 -35.74 245.97 C-35.559 226.18 -34.32 207.45 -33.637 188.16 C-10.625 171.71 -21.99 116.29 -13.662 80.939 C-12.361 75.389 -8.391 71.121 -7.357 66.221 C-3.996 50.266 -8.012 34.949 -1.053 22.072 C-0.357 15.053 -2.439 5.264 0 0" class="ps02"/>
</g>
</g>
</g>
</g>
<text transform="matrix(1 0 0 -1 170.7158 334.5146)"><tspan x="0,113.24" y="-0" class="ps03 ps20">6.</tspan><tspan x="141.74,256.69" y="-0" class="ps03 ps20">06</tspan></text>
<text transform="matrix(1 0 0 -1 170.7158 209.7148)"><tspan x="0,30.68,86.528,146.22,207.9,271.44,331.14" y="-0" class="ps03 ps21">Isengar</tspan><tspan x="369.72" y="-0" class="ps03 ps21">d</tspan></text>
<g id="q4" class="ps03 ps10 ps21">
<g id="xfrm5" transform="matrix(1 0 0 1 27 2416.9365)">
<path d="M0 0 L-27 0M1695.8 0 L1722.8 0M0 -2383.9 L-27 -2383.9M1695.8 -2383.9 L1722.8 -2383.9M6 6 L6 33M6 -2389.9 L6 -2416.9M1689.8 6 L1689.8 33M1689.8 -2389.9 L1689.8 -2416.9" class="ps04"/>
</g>
</g>
<g id="q6" class="ps03 ps11 ps21">
<g id="xfrm7" transform="matrix(1 0 0 1 27 2416.9365)">
<path d="M0 0 L-27 0M1695.8 0 L1722.8 0M0 -2383.9 L-27 -2383.9M1695.8 -2383.9 L1722.8 -2383.9M6 6 L6 33M6 -2389.9 L6 -2416.9M1689.8 6 L1689.8 33M1689.8 -2389.9 L1689.8 -2416.9" class="ps05"/>
</g>
</g>
<g id="xfrm8" transform="matrix(1749.78 0 0 2449.94 0 0)">
<g id="frm9" transform="matrix(0.01 0 0 0.01 0 0)">
<text transform="matrix(1 0 0 -1 0 43.5267)"><tspan x="0,9.3475,18.695,28.043,31.642,38.84,46.038,49.638,53.237,57.548,64.746,71.945,75.544,82.017,89.216" y="-0" class="ps06 ps13 ps22">www.pdftron.com</tspan></text>
</g>
</g>
</g>
</svg>
