<?xml version="1.0" encoding="ISO-8859-1"?>
<!-- Generator: PDFTron PDF2SVG Converter (DEMO VERSION) -->
<svg id="svgRoot" version="1.0" baseProfile="Full" viewBox="0 0 1750 2450" xmlns="http://www.w3.org/2000/svg" xmlns:xlink="http://www.w3.org/1999/xlink" xmlns:cs="http://www.pdftron.com/pdf2svg" xml:space="preserve">
<defs>
<font horiz-adv-x="0"><font-face 
  font-family="fnt2"
  units-per-em="2048"
  ascent="927.73"
  descent="-218.26"
/>
<missing-glyph horiz-adv-x="0"/>
<glyph unicode="." horiz-adv-x="569" d="M178,217L392,217L392,-0L178,-0 Z"/>
<glyph unicode="c" horiz-adv-x="1024" d="M977,385L977,385Q949,183,834,77Q719,-29,528,-29Q315,-29,188,124Q61,277,61,536Q61,795,192,948Q324,1102,546,1102Q739,1102,854,996Q969,891,977,706L977,706L804,706L804,706Q793,821,724,884Q655,947,540,947Q404,947,326,837Q249,728,249,536Q249,332,321,229Q393,126,535,126Q640,126,710,193Q781,261,804,385L804,385 Z"/>
<glyph unicode="d" horiz-adv-x="1138" d="M541,-29Q326,-29,199,131Q72,292,72,565Q72,806,195,954Q318,1102,516,1102Q713,1102,828,935L842,915L842,915L842,1470L842,1470L932,1470L1022,1470L1022,1470L1022,-0L1022,-0L939,-0L855,-0L855,-0L855,146L855,146L832,113Q721,-29,541,-29 ZM551,940Q400,940,330,843Q260,747,260,537Q260,339,335,232Q411,125,551,125Q682,125,762,223Q842,322,842,484Q842,703,766,821Q691,940,551,940 Z"/>
<glyph unicode="f" horiz-adv-x="569" d="M357,921L357,921L357,-0L357,-0L267,-0L177,-0L177,-0L177,921L177,921L29,921L29,1070L177,1070L177,1070L177,1252Q177,1371,247,1431Q317,1491,457,1491L536,1488L536,1326L465,1329Q413,1329,385,1295Q357,1262,357,1200L357,1070L357,1070L536,1070L536,921 Z"/>
<glyph unicode="m" horiz-adv-x="1705" d="M133,-0L133,1070L133,1070L218,1070L304,1070L304,1070L304,911L304,911L304,911L341,959Q462,1102,630,1102Q774,1102,859,1017Q897,979,918,930L918,930L947,967Q1063,1102,1224,1102Q1392,1102,1483,1010Q1575,919,1575,751L1575,-0L1575,-0L1485,-0L1395,-0L1395,-0L1395,690Q1395,812,1345,875Q1295,938,1199,938Q1082,938,1013,847Q944,756,944,601L944,601L944,-0L944,-0L854,-0L764,-0L764,-0L764,733Q764,833,718,885Q673,938,586,938Q466,938,389,836Q313,734,313,573L313,573L313,-0L313,-0L223,-0L133,-0 Z"/>
<glyph unicode="n" horiz-adv-x="1138" d="M133,-0L133,1070L133,1070L218,1070L304,1070L304,1070L304,912L304,912L304,912L344,965Q461,1102,637,1102Q814,1102,910,1006Q1006,910,1006,733L1006,-0L1006,-0L916,-0L826,-0L826,-0L826,672Q826,813,771,875Q717,938,595,938Q465,938,389,839Q313,741,313,573L313,573L313,-0L313,-0L223,-0L133,-0 Z"/>
<glyph unicode="o" horiz-adv-x="1138" d="M569,-29Q347,-29,209,127Q72,283,72,536Q72,790,209,946Q347,1102,569,1102Q793,1102,930,946Q1067,790,1067,536Q1067,283,930,127Q793,-29,569,-29 ZM569,126Q711,126,795,237Q879,348,879,536Q879,724,795,835Q711,947,569,947Q427,947,343,835Q260,724,260,536Q260,348,343,237Q427,126,569,126 Z"/>
<glyph unicode="p" horiz-adv-x="1138" d="M119,1070L119,1070L204,1070L290,1070L290,1070L290,918L290,918L299,931Q415,1102,604,1102Q814,1102,936,957Q1059,813,1059,567Q1059,288,935,129Q812,-29,593,-29Q412,-29,305,110L299,118L299,118L299,-423L299,-423L209,-423L119,-423L119,-423 ZM584,127Q725,127,798,233Q871,340,871,544Q871,745,801,841Q731,938,585,938Q436,938,367,829Q299,720,299,484L299,484L299,484L299,484Q299,313,373,220Q447,127,584,127 Z"/>
<glyph unicode="r" horiz-adv-x="681" d="M158,-0L158,1070L158,1070L243,1070L329,1070L329,1070L329,887L329,887L329,887Q352,930,378,965Q480,1102,629,1102Q654,1102,680,1093L680,909L643,910Q497,910,417,822Q338,735,338,573L338,573L338,-0L338,-0L248,-0L158,-0 Z"/>
<glyph unicode="t" horiz-adv-x="569" d="M526,1Q434,-13,392,-13Q274,-13,225,39Q177,91,177,218L177,923L177,923L29,923L29,1070L177,1070L177,1070L177,1370L357,1370L357,1070L357,1070L526,1070L526,923L357,923L357,923L357,218Q357,182,385,161Q414,140,462,140L526,140 Z"/>
<glyph unicode="w" horiz-adv-x="1478" d="M333,-0L29,1070L29,1070L128,1070L227,1070L227,1070L432,218L432,218L432,218L641,1070L741,1070L841,1070L1056,212L1056,212L1056,212L1273,1070L1273,1070L1362,1070L1452,1070L1452,1070L1149,-0L1053,-0L956,-0L735,836L735,836L735,836L526,-0L430,-0 Z"/>
</font>
<font horiz-adv-x="0"><font-face 
  font-family="fnt0"
  units-per-em="1000"
  ascent="1065"
  descent="-210"
/>
<missing-glyph horiz-adv-x="0"/>
<glyph unicode="." horiz-adv-x="170" d="M80,-0L90,-0L90,80L80,80 Z"/>
<glyph unicode="0" horiz-adv-x="605" d="M515,200C515,75,438,-1,302,-1C167,-1,90,75,90,200L90,500C90,625,167,701,303,701C438,701,515,625,515,500 ZM525,500C525,631,444,710,303,710C161,710,80,631,80,500L80,200C80,69,161,-10,302,-10C444,-10,525,69,525,200 Z"/>
<glyph unicode="2" horiz-adv-x="585" d="M501,542C501,652,416,710,293,710C185,710,114,668,90,587L90,700L80,700L80,490L90,490L90,519C90,639,164,701,293,701C411,701,491,645,491,542C491,478,459,418,409,364L80,9L80,-0L525,-0L525,9L93,9L416,358C465,410,501,476,501,542 Z"/>
<glyph unicode="7" horiz-adv-x="505" d="M144,-0L155,-0L475,691L475,700L30,700L30,525L40,525L40,691L464,691 Z"/>
</font>
<font horiz-adv-x="0"><font-face 
  font-family="fnt1"
  units-per-em="1000"
  ascent="975"
  descent="-217"
/>
<missing-glyph horiz-adv-x="0"/>
<glyph unicode="S" horiz-adv-x="649" d="M176,237L24,237Q23,171,48,123Q73,75,115,44Q158,13,213,-1Q269,-16,328,-16Q401,-16,456,1Q512,18,549,48Q587,79,606,121Q625,163,625,212Q625,272,599,310Q574,349,539,372Q504,395,468,405Q433,416,413,420Q346,437,304,448Q263,459,239,470Q216,481,208,494Q200,507,200,528Q200,551,210,566Q220,581,235,591Q251,601,270,605Q289,609,308,609Q337,609,361,604Q386,599,405,587Q424,575,435,554Q447,533,449,501L601,501Q601,563,577,606Q554,650,514,678Q474,706,422,718Q371,731,315,731Q267,731,219,718Q171,705,133,678Q95,651,71,610Q48,570,48,515Q48,466,66,431Q85,397,115,374Q145,351,183,336Q221,322,261,312Q300,301,338,292Q376,283,406,271Q436,259,454,241Q473,223,473,194Q473,167,459,149Q445,132,424,122Q403,112,379,108Q355,105,334,105Q303,105,274,112Q245,120,223,135Q202,151,189,176Q176,201,176,237 Z"/>
<glyph unicode="e" horiz-adv-x="574" d="M402,314L171,314Q172,329,177,348Q183,367,196,384Q210,401,232,412Q255,424,289,424Q341,424,366,396Q392,368,402,314 ZM171,224L544,224Q548,284,534,339Q520,394,488,437Q457,480,408,505Q359,531,293,531Q234,531,185,510Q137,489,102,452Q67,416,48,366Q29,316,29,258Q29,198,47,148Q66,98,100,62Q134,26,183,6Q232,-13,293,-13Q381,-13,443,27Q505,67,535,160L410,160Q403,136,372,114Q341,93,298,93Q238,93,206,124Q174,155,171,224 Z"/>
<glyph unicode="i" horiz-adv-x="258" d="M200,597L200,714L58,714L58,597 ZM58,517L58,-0L200,-0L200,517 Z"/>
<glyph unicode="n" horiz-adv-x="593" d="M54,517L54,-0L196,-0L196,271Q196,350,222,384Q248,419,306,419Q357,419,377,387Q397,356,397,292L397,-0L539,-0L539,318Q539,366,530,405Q522,445,501,472Q480,500,443,515Q407,531,350,531Q305,531,262,510Q219,490,192,445L189,445L189,517 Z"/>
<glyph unicode="r" horiz-adv-x="389" d="M54,517L54,-0L196,-0L196,233Q196,268,203,298Q210,328,226,350Q243,373,270,386Q297,399,336,399Q349,399,363,397Q377,396,387,394L387,526Q370,531,356,531Q329,531,304,523Q279,515,257,500Q235,486,218,465Q201,445,191,421L189,421L189,517 Z"/>
<glyph unicode="t" horiz-adv-x="352" d="M234,517L234,672L92,672L92,517L6,517L6,422L92,422L92,117Q92,78,105,54Q118,30,140,17Q163,4,192,-0Q222,-5,255,-5Q276,-5,298,-4Q320,-3,338,-0L338,110Q328,108,317,107Q306,106,294,106Q258,106,246,118Q234,130,234,166L234,422L338,422L338,517 Z"/>
<glyph unicode="y" horiz-adv-x="519" d="M309,-64L525,517L378,517L265,163L263,163L146,517L-5,517L176,32Q182,17,182,-0Q182,-23,168,-42Q155,-61,127,-64Q106,-65,85,-63Q64,-61,44,-59L44,-176Q66,-178,87,-179Q109,-181,131,-181Q204,-181,245,-154Q286,-127,309,-64 Z"/>
</font>
</defs>
<style type="text/css">
<![CDATA[
.ps05 { stroke:#000000;fill:none; }
.ps06 { stroke:#97B3FC;fill:none; }
.ps04 { stroke:#FFFFFF;fill:none; }
.ps01 { stroke:none;fill:#100E0C;fill-rule:nonzero; }
.ps03 { stroke:none;fill:#100F0D;fill-rule:evenodd; }
.ps00 { stroke:none;fill:#9ED1C4;fill-rule:nonzero; }
.ps02 { stroke:none;fill:none; }
.ps13 { stroke-width:0.000001; }
.ps11 { stroke-width:0.25; }
.ps10 { stroke-width:1.25; }
.ps12 { stroke-width:1; }
.ps20 { 
letter-spacing:-15.2px;word-spacing:15.2;font-family:fnt0;font-size:190px; }
.ps21 { 
letter-spacing:0px;word-spacing:0;font-family:fnt1;font-size:104px; }
.ps22 { 
letter-spacing:0px;word-spacing:0;font-family:fnt2;font-size:12.947px; }
]]>
</style>
<clipPath id="clp1" clip-rule="nonzero">
<rect x="0" y="0" width="1750" height="2450"/>
</clipPath>
<g clip-path="url(#clp1)" transform="matrix(1 0 0 -1 -0 2449.94)">
<path d="M1745.1 7.491 L4.659 7.491 L4.659 2445.3 L1745.1 2445.3 Z" class="ps00"/>
<text transform="matrix(1 0 0 -1 169.6133 328.6885)"><tspan x="0,80.75" y="-0" class="ps01 ps20">7.</tspan><tspan x="109.25" y="-0" class="ps01 ps20">0</tspan><tspan x="224.2" y="-0" class="ps01 ps20">2</tspan></text>
<text transform="matrix(1 0 0 -1 169.6133 203.8887)"><tspan x="0,67.496,127.19" y="-0" class="ps01 ps21">Ser</tspan><tspan x="165.78,225.47,287.14,313.98,350.58" y="-0" class="ps01 ps21">enity</tspan></text>
<g id="q1" class="ps01 ps21">
<clipPath id="clp2" clip-rule="nonzero">
<path d="M4.653 2445.3 L1745.1 2445.3 L1745.1 4.654 L4.653 4.654 Z"/>
</clipPath>
<g clip-path="url(#clp2)">
<g id="q2" class="ps02">
<g id="xfrm3" transform="matrix(1 0 0 1 483.4609 2027.5552)">
<path d="M0 0 C15.575 -4.015 23.317 -14.005 21.129 -22.637 C18.939 -31.269 5.057 -42.06 -9.055 -36.22 C-23.165 -30.379 -29.805 -20.358 -27.164 -12.073 C-24.523 -3.787 -15.574 4.015 0 0M562.91 -816.45 C585.43 -816.52 603.29 -860.03 605.03 -864.39 C605.17 -863.73 607.66 -862.4 626.29 -863.23 C650.69 -864.32 748.54 -903.98 748.54 -903.98 C748.54 -903.98 873.46 -947.44 965.85 -959.82 C1058.2 -972.19 1106.2 -888.89 1106.2 -888.89 C1074.9 -913.74 999.06 -907 999.06 -907 C880.69 -912.97 748.54 -842.1 748.54 -842.1 C644.93 -833.35 618.75 -802.86 618.75 -802.86 C618.75 -802.86 596.26 -800.06 588.57 -792.3 C580.87 -784.54 549.33 -787.77 549.33 -787.77 C549.33 -787.77 537.95 -774.34 522.17 -753.06 C506.38 -731.79 460.82 -717.9 436.14 -710.81 C411.47 -703.71 396.85 -690.31 368.23 -683.64 C339.62 -676.97 290.24 -663.98 247.5 -638.37 C204.76 -612.76 196.16 -593.11 178.08 -579.51 C160 -565.91 131.3 -552.35 131.3 -552.35 L122.24 -540.27 C130.47 -541.38 143.37 -555.36 143.37 -555.36 C136.88 -544.86 134.07 -541.68 123.84 -534.27 C121.76 -532.76 120.32 -531.75 119.37 -531.07 L119.22 -531.22 C119.22 -531.22 115.66 -528.46 119.37 -531.07 C120.45 -530.04 127.09 -523.7 132.81 -519.15 C139.05 -514.17 134.31 -495 134.31 -495 C134.31 -495 139.72 -482.11 141.86 -476.89 C144 -471.67 134.71 -462.04 137.33 -454.25 C139.96 -446.46 127.81 -422.53 122.24 -407.47 C116.67 -392.41 131.57 -387.41 110.17 -350.12 C88.768 -312.83 75.76 -298.36 24.146 -289.76 C-27.466 -281.15 -64.893 -351.63 -64.893 -351.63 C-64.893 -351.63 -74.129 -322.19 -78.475 -304.85 C-82.821 -287.51 -81.025 -256.96 -81.493 -245.99 C-81.961 -235.02 -93.566 -183.59 -102.62 -155.44 C-111.68 -127.3 -110.17 -110.17 -110.17 -110.17 C-96.66 -103.23 -93.566 -79.984 -93.566 -79.984 C-93.566 -79.984 -88.556 -63.807 -52.819 -66.402 C-17.084 -68.998 -13.295 -71.337 -13.582 -96.585 C-13.868 -121.83 -52.186 -134.68 -54.329 -137.33 C-56.472 -139.99 -49.666 -144.08 -37.729 -149.41 C-25.791 -154.73 -31.691 -169.02 -31.691 -169.02 C17.024 -165.11 19.619 -125.26 19.619 -125.26 C1.117 -130.27 -3.894 -120.88 12.073 -73.948 C28.04 -27.014 75.458 22.638 75.458 22.638 C63.867 48.881 46.784 55.839 46.784 55.839 C-24.825 81.419 -99.604 12.073 -99.604 12.073 C-73.026 14.579 -47.16 7.048 -45.273 -22.637 C-43.388 -52.322 -95.075 -51.311 -95.075 -51.311 L-105.64 -39.237 L-107.15 -36.22 L-120.73 -45.274 C-120.73 -45.274 -123.78 -43.281 -128.28 -42.256 C-132.77 -41.23 -137.33 -49.802 -137.33 -49.802 C-137.33 -49.802 -136.92 -49.032 -141.86 -49.802 C-146.79 -50.571 -155.44 -67.911 -155.44 -67.911 L-187.13 -81.494 C-191.01 -102.94 -178.08 -110.17 -178.08 -110.17 L-144.88 -99.604 C-144.88 -99.604 -141.86 -103.31 -140.35 -110.17 C-138.84 -117.02 -138.72 -119.63 -138.84 -129.79 C-138.96 -139.94 -137.21 -225.62 -137.33 -256.56 C-137.45 -287.49 -130.57 -292.08 -128.28 -303.34 C-125.98 -314.6 -97.958 -396.19 -90.548 -419.54 C-83.138 -442.89 -64.093 -489.63 -61.874 -504.05 C-59.656 -518.48 -72.876 -520.35 -78.475 -534.24 C-84.074 -548.12 -73.947 -562.91 -73.947 -562.91 C-73.947 -562.91 -118.03 -630.11 -126.77 -651.95 C-135.51 -673.79 -110.5 -695.32 -101.11 -713.82 C-91.726 -732.33 -93.566 -754.9 -93.566 -766.64 C-93.566 -778.38 -79.773 -859.64 -78.475 -867.76 C-77.177 -875.88 -77.268 -900.4 -110.17 -900.96 C-143.07 -901.52 -211.48 -901.65 -233.92 -903.98 C-256.36 -906.3 -293.62 -914.19 -309.37 -919.07 C-325.13 -923.94 -323.73 -945.55 -322.96 -964.34 C-322.19 -983.13 -304.29 -995.1 -286.74 -1002.1 C-269.19 -1009 -187.13 -1030.7 -187.13 -1030.7 C-187.13 -1030.7 -161.3 -1036.5 -149.4 -1039.8 C-137.51 -1043.1 -104.85 -1060.3 -99.604 -1062.4 C-94.352 -1064.6 -87.304 -1054.7 -78.475 -1060.9 C-69.646 -1067.2 -60.365 -1079 -60.365 -1079 C-60.365 -1079 -55.31 -1083.5 -55.838 -1094.1 C-56.366 -1104.7 -53.438 -1119.3 -54.329 -1124.3 C-55.219 -1129.4 -59.082 -1136.2 -70.93 -1142.4 C-82.776 -1148.6 -101.1 -1158.8 -102.62 -1169.6 C-104.15 -1180.4 -62.206 -1175.1 -33.201 -1172.6 C-4.195 -1170.1 -3.894 -1166.9 -1.509 -1156 C0.876 -1145.1 11.787 -1126.2 30.184 -1103.2 C48.58 -1080.2 52.82 -1057.9 52.82 -1057.9 C52.82 -1057.9 74.507 -1063.4 86.021 -1063.9 C97.536 -1064.4 164.5 -1045.8 164.5 -1045.8 C164.5 -1045.8 346.68 -1093.6 374.27 -1098.7 C401.85 -1103.8 406.25 -1099.2 430.11 -1100.2 C453.97 -1101.1 490.29 -1113 507.07 -1116.8 C523.86 -1120.5 576.49 -1119.8 576.49 -1119.8 C588.71 -1128.5 618.75 -1125.8 618.75 -1125.8 C623.04 -1129.2 647.42 -1128.8 647.42 -1128.8 C653.43 -1136.5 666.51 -1131.2 670.06 -1131.9 C673.61 -1132.5 675.28 -1131.2 682.13 -1131.9 C688.99 -1132.5 700.24 -1127.3 700.24 -1127.3 C700.24 -1127.3 713.54 -1131.8 722.88 -1134.9 C732.22 -1137.9 725.46 -1127.4 728.92 -1131.9 C732.37 -1136.3 754.93 -1146.2 768.15 -1148.5 C781.38 -1150.7 804.38 -1160.5 804.38 -1160.5 C804.38 -1160.5 805.73 -1179.5 845.12 -1178.6 C884.51 -1177.8 884.12 -1148.7 890.4 -1131.9 C896.67 -1115 878.47 -1103 866.25 -1098.7 C854.02 -1094.4 813.43 -1091.1 813.43 -1091.1 C811.72 -1079.9 784.41 -1077.9 774.19 -1080.5 C763.97 -1083.2 734.95 -1076 734.95 -1076 C726.9 -1067.9 695.72 -1059.4 695.72 -1059.4 L706.28 -1050.4 L686.66 -1048.9 C686.66 -1048.9 667.13 -1051.5 654.97 -1053.4 C642.81 -1055.2 590.08 -1041.3 590.08 -1041.3 C590.08 -1041.3 542.34 -1027.1 522.17 -1021.7 C501.99 -1016.3 440.75 -1015.2 392.38 -1006.6 C344.01 -998.04 259.57 -944.72 259.57 -944.72 C259.57 -944.72 235.67 -921.09 224.86 -908.5 C214.06 -895.92 188.01 -870.92 179.59 -858.7 C171.17 -846.48 146.61 -810.73 137.33 -804.37 C128.05 -798.02 98.955 -776.23 89.04 -766.64 C79.125 -757.06 80.15 -705.36 83.004 -688.17 C85.855 -670.98 103.98 -633.87 113.19 -629.31 C122.39 -624.76 125.92 -628.23 156.95 -645.91 C187.98 -663.6 278.95 -718.53 321.45 -728.92 C363.95 -739.3 468.33 -763.69 478.4 -768.15 C488.47 -772.62 478.4 -783.25 478.4 -783.25 C472.15 -792.15 488.96 -805.88 488.96 -805.88 C493.28 -813.59 507.07 -808.9 507.07 -808.9 C507.56 -818.36 519.15 -814.94 519.15 -814.94 C519.15 -814.94 525.41 -818.24 541.78 -825.5 C558.16 -832.76 539.21 -816.37 562.91 -816.45M605.17 -864.74 L605.03 -864.39 C604.99 -864.6 605.17 -864.74 605.17 -864.74" class="ps03"/>
</g>
</g>
</g>
</g>
<g id="q4" class="ps01 ps10 ps21">
<g id="xfrm5" transform="matrix(1 0 0 1 27 2416.9365)">
<path d="M0 0 L-27 0M1695.8 0 L1722.8 0M0 -2383.9 L-27 -2383.9M1695.8 -2383.9 L1722.8 -2383.9M6 6 L6 33M6 -2389.9 L6 -2416.9M1689.8 6 L1689.8 33M1689.8 -2389.9 L1689.8 -2416.9" class="ps04"/>
</g>
</g>
<g id="q6" class="ps01 ps11 ps21">
<g id="xfrm7" transform="matrix(1 0 0 1 27 2416.9365)">
<path d="M0 0 L-27 0M1695.8 0 L1722.8 0M0 -2383.9 L-27 -2383.9M1695.8 -2383.9 L1722.8 -2383.9M6 6 L6 33M6 -2389.9 L6 -2416.9M1689.8 6 L1689.8 33M1689.8 -2389.9 L1689.8 -2416.9" class="ps05"/>
</g>
</g>
<g id="xfrm8" transform="matrix(1749.78 0 0 2449.94 0 0)">
<g id="frm9" transform="matrix(0.01 0 0 0.01 0 0)">
<text transform="matrix(1 0 0 -1 0 43.5267)"><tspan x="0,9.3475,18.695,28.043,31.642,38.84,46.038,49.638,53.237,57.548,64.746,71.945,75.544,82.017,89.216" y="-0" class="ps06 ps13 ps22">www.pdftron.com</tspan></text>
</g>
</g>
</g>
</svg>
