<?xml version="1.0" encoding="ISO-8859-1"?>
<!-- Generator: PDFTron PDF2SVG Converter (DEMO VERSION) -->
<svg id="svgRoot" version="1.0" baseProfile="Full" viewBox="0 0 1750 2450" xmlns="http://www.w3.org/2000/svg" xmlns:xlink="http://www.w3.org/1999/xlink" xmlns:cs="http://www.pdftron.com/pdf2svg" xml:space="preserve">
<defs>
<font horiz-adv-x="0"><font-face 
  font-family="fnt0"
  units-per-em="1000"
  ascent="1065"
  descent="-210"
/>
<missing-glyph horiz-adv-x="0"/>
<glyph unicode="." horiz-adv-x="170" d="M80,-0L90,-0L90,80L80,80 Z"/>
<glyph unicode="1" horiz-adv-x="440" d="M60,-0L400,-0L400,9L240,9L240,700L230,700L60,578L60,567L230,689L230,9L60,9 Z"/>
<glyph unicode="2" horiz-adv-x="585" d="M501,542C501,652,416,710,293,710C185,710,114,668,90,587L90,700L80,700L80,490L90,490L90,519C90,639,164,701,293,701C411,701,491,645,491,542C491,478,459,418,409,364L80,9L80,-0L525,-0L525,9L93,9L416,358C465,410,501,476,501,542 Z"/>
</font>
<font horiz-adv-x="0"><font-face 
  font-family="fnt1"
  units-per-em="1000"
  ascent="975"
  descent="-217"
/>
<missing-glyph horiz-adv-x="0"/>
<glyph unicode=" " horiz-adv-x="278" d="M0 0 Z"/>
<glyph unicode="C" horiz-adv-x="741" d="M545,474L697,474Q690,536,663,584Q636,632,594,664Q553,697,500,714Q448,731,389,731Q307,731,241,702Q176,673,131,622Q86,571,62,502Q38,434,38,354Q38,276,62,208Q86,141,131,91Q176,41,241,12Q307,-16,389,-16Q455,-16,510,4Q565,24,606,62Q647,100,672,154Q697,208,703,275L551,275Q542,203,501,159Q461,115,389,115Q336,115,299,135Q262,156,239,190Q216,224,205,266Q195,309,195,354Q195,401,205,445Q216,489,239,523Q262,558,299,578Q336,599,389,599Q418,599,444,589Q471,580,492,563Q513,546,527,523Q541,501,545,474 Z"/>
<glyph unicode="S" horiz-adv-x="649" d="M176,237L24,237Q23,171,48,123Q73,75,115,44Q158,13,213,-1Q269,-16,328,-16Q401,-16,456,1Q512,18,549,48Q587,79,606,121Q625,163,625,212Q625,272,599,310Q574,349,539,372Q504,395,468,405Q433,416,413,420Q346,437,304,448Q263,459,239,470Q216,481,208,494Q200,507,200,528Q200,551,210,566Q220,581,235,591Q251,601,270,605Q289,609,308,609Q337,609,361,604Q386,599,405,587Q424,575,435,554Q447,533,449,501L601,501Q601,563,577,606Q554,650,514,678Q474,706,422,718Q371,731,315,731Q267,731,219,718Q171,705,133,678Q95,651,71,610Q48,570,48,515Q48,466,66,431Q85,397,115,374Q145,351,183,336Q221,322,261,312Q300,301,338,292Q376,283,406,271Q436,259,454,241Q473,223,473,194Q473,167,459,149Q445,132,424,122Q403,112,379,108Q355,105,334,105Q303,105,274,112Q245,120,223,135Q202,151,189,176Q176,201,176,237 Z"/>
<glyph unicode="a" horiz-adv-x="574" d="M48,358L190,358Q194,400,218,418Q242,436,284,436Q303,436,319,433Q336,431,348,423Q361,416,368,402Q376,389,376,366Q377,344,363,332Q349,321,325,315Q301,309,270,306Q239,303,207,298Q175,293,143,284Q112,276,87,259Q63,242,47,213Q32,185,32,141Q32,101,45,72Q59,43,83,24Q107,5,139,-4Q171,-13,208,-13Q256,-13,302,1Q348,15,382,50Q383,37,385,24Q388,12,392,-0L536,-0Q526,16,522,48Q518,80,518,115L518,384Q518,431,497,459Q476,488,443,504Q410,520,370,525Q330,531,291,531Q248,531,205,522Q163,514,129,494Q95,474,73,441Q51,408,48,358 ZM376,253L376,200Q376,188,373,168Q371,148,360,128Q349,109,326,95Q303,81,261,81Q244,81,228,84Q212,87,200,94Q188,102,181,115Q174,128,174,147Q174,167,181,180Q188,193,199,201Q211,210,226,215Q242,220,258,223Q275,226,292,228Q309,230,324,233Q340,236,353,240Q367,245,376,253 Z"/>
<glyph unicode="e" horiz-adv-x="574" d="M402,314L171,314Q172,329,177,348Q183,367,196,384Q210,401,232,412Q255,424,289,424Q341,424,366,396Q392,368,402,314 ZM171,224L544,224Q548,284,534,339Q520,394,488,437Q457,480,408,505Q359,531,293,531Q234,531,185,510Q137,489,102,452Q67,416,48,366Q29,316,29,258Q29,198,47,148Q66,98,100,62Q134,26,183,6Q232,-13,293,-13Q381,-13,443,27Q505,67,535,160L410,160Q403,136,372,114Q341,93,298,93Q238,93,206,124Q174,155,171,224 Z"/>
<glyph unicode="k" horiz-adv-x="574" d="M67,714L67,-0L209,-0L209,178L264,231L406,-0L578,-0L361,327L556,517L388,517L209,331L209,714 Z"/>
<glyph unicode="l" horiz-adv-x="258" d="M58,714L58,-0L200,-0L200,714 Z"/>
<glyph unicode="u" horiz-adv-x="593" d="M539,-0L539,517L397,517L397,246Q397,167,371,132Q345,98,287,98Q236,98,216,129Q196,161,196,225L196,517L54,517L54,199Q54,151,62,111Q71,72,92,44Q113,17,149,2Q186,-13,243,-13Q288,-13,331,7Q374,27,401,72L404,72L404,-0 Z"/>
<glyph unicode="v" horiz-adv-x="520" d="M340,-0L515,517L374,517L265,164L263,164L154,517L5,517L182,-0 Z"/>
</font>
<font horiz-adv-x="0"><font-face 
  font-family="fnt2"
  units-per-em="2048"
  ascent="927.73"
  descent="-218.26"
/>
<missing-glyph horiz-adv-x="0"/>
<glyph unicode="." horiz-adv-x="569" d="M178,217L392,217L392,-0L178,-0 Z"/>
<glyph unicode="c" horiz-adv-x="1024" d="M977,385L977,385Q949,183,834,77Q719,-29,528,-29Q315,-29,188,124Q61,277,61,536Q61,795,192,948Q324,1102,546,1102Q739,1102,854,996Q969,891,977,706L977,706L804,706L804,706Q793,821,724,884Q655,947,540,947Q404,947,326,837Q249,728,249,536Q249,332,321,229Q393,126,535,126Q640,126,710,193Q781,261,804,385L804,385 Z"/>
<glyph unicode="d" horiz-adv-x="1138" d="M541,-29Q326,-29,199,131Q72,292,72,565Q72,806,195,954Q318,1102,516,1102Q713,1102,828,935L842,915L842,915L842,1470L842,1470L932,1470L1022,1470L1022,1470L1022,-0L1022,-0L939,-0L855,-0L855,-0L855,146L855,146L832,113Q721,-29,541,-29 ZM551,940Q400,940,330,843Q260,747,260,537Q260,339,335,232Q411,125,551,125Q682,125,762,223Q842,322,842,484Q842,703,766,821Q691,940,551,940 Z"/>
<glyph unicode="f" horiz-adv-x="569" d="M357,921L357,921L357,-0L357,-0L267,-0L177,-0L177,-0L177,921L177,921L29,921L29,1070L177,1070L177,1070L177,1252Q177,1371,247,1431Q317,1491,457,1491L536,1488L536,1326L465,1329Q413,1329,385,1295Q357,1262,357,1200L357,1070L357,1070L536,1070L536,921 Z"/>
<glyph unicode="m" horiz-adv-x="1705" d="M133,-0L133,1070L133,1070L218,1070L304,1070L304,1070L304,911L304,911L304,911L341,959Q462,1102,630,1102Q774,1102,859,1017Q897,979,918,930L918,930L947,967Q1063,1102,1224,1102Q1392,1102,1483,1010Q1575,919,1575,751L1575,-0L1575,-0L1485,-0L1395,-0L1395,-0L1395,690Q1395,812,1345,875Q1295,938,1199,938Q1082,938,1013,847Q944,756,944,601L944,601L944,-0L944,-0L854,-0L764,-0L764,-0L764,733Q764,833,718,885Q673,938,586,938Q466,938,389,836Q313,734,313,573L313,573L313,-0L313,-0L223,-0L133,-0 Z"/>
<glyph unicode="n" horiz-adv-x="1138" d="M133,-0L133,1070L133,1070L218,1070L304,1070L304,1070L304,912L304,912L304,912L344,965Q461,1102,637,1102Q814,1102,910,1006Q1006,910,1006,733L1006,-0L1006,-0L916,-0L826,-0L826,-0L826,672Q826,813,771,875Q717,938,595,938Q465,938,389,839Q313,741,313,573L313,573L313,-0L313,-0L223,-0L133,-0 Z"/>
<glyph unicode="o" horiz-adv-x="1138" d="M569,-29Q347,-29,209,127Q72,283,72,536Q72,790,209,946Q347,1102,569,1102Q793,1102,930,946Q1067,790,1067,536Q1067,283,930,127Q793,-29,569,-29 ZM569,126Q711,126,795,237Q879,348,879,536Q879,724,795,835Q711,947,569,947Q427,947,343,835Q260,724,260,536Q260,348,343,237Q427,126,569,126 Z"/>
<glyph unicode="p" horiz-adv-x="1138" d="M119,1070L119,1070L204,1070L290,1070L290,1070L290,918L290,918L299,931Q415,1102,604,1102Q814,1102,936,957Q1059,813,1059,567Q1059,288,935,129Q812,-29,593,-29Q412,-29,305,110L299,118L299,118L299,-423L299,-423L209,-423L119,-423L119,-423 ZM584,127Q725,127,798,233Q871,340,871,544Q871,745,801,841Q731,938,585,938Q436,938,367,829Q299,720,299,484L299,484L299,484L299,484Q299,313,373,220Q447,127,584,127 Z"/>
<glyph unicode="r" horiz-adv-x="681" d="M158,-0L158,1070L158,1070L243,1070L329,1070L329,1070L329,887L329,887L329,887Q352,930,378,965Q480,1102,629,1102Q654,1102,680,1093L680,909L643,910Q497,910,417,822Q338,735,338,573L338,573L338,-0L338,-0L248,-0L158,-0 Z"/>
<glyph unicode="t" horiz-adv-x="569" d="M526,1Q434,-13,392,-13Q274,-13,225,39Q177,91,177,218L177,923L177,923L29,923L29,1070L177,1070L177,1070L177,1370L357,1370L357,1070L357,1070L526,1070L526,923L357,923L357,923L357,218Q357,182,385,161Q414,140,462,140L526,140 Z"/>
<glyph unicode="w" horiz-adv-x="1478" d="M333,-0L29,1070L29,1070L128,1070L227,1070L227,1070L432,218L432,218L432,218L641,1070L741,1070L841,1070L1056,212L1056,212L1056,212L1273,1070L1273,1070L1362,1070L1452,1070L1452,1070L1149,-0L1053,-0L956,-0L735,836L735,836L735,836L526,-0L430,-0 Z"/>
</font>
</defs>
<style type="text/css">
<![CDATA[
.ps05 { stroke:#000000;fill:none; }
.ps06 { stroke:#97B3FC;fill:none; }
.ps04 { stroke:#FFFFFF;fill:none; }
.ps00 { stroke:none;fill:#4F1331;fill-rule:nonzero; }
.ps02 { stroke:none;fill:#FFFFFF;fill-rule:evenodd; }
.ps03 { stroke:none;fill:#FFFFFF;fill-rule:nonzero; }
.ps01 { stroke:none;fill:none; }
.ps13 { stroke-width:0.000001; }
.ps11 { stroke-width:0.25; }
.ps10 { stroke-width:1.25; }
.ps12 { stroke-width:1; }
.ps20 { 
letter-spacing:0px;word-spacing:0;font-family:fnt0;font-size:190px; }
.ps21 { 
letter-spacing:0px;word-spacing:0;font-family:fnt1;font-size:104px; }
.ps22 { 
letter-spacing:0px;word-spacing:0;font-family:fnt2;font-size:12.947px; }
]]>
</style>
<clipPath id="clp1" clip-rule="nonzero">
<rect x="0" y="0" width="1750" height="2450"/>
</clipPath>
<g clip-path="url(#clp1)" transform="matrix(1 0 0 -1 -0 2449.94)">
<path d="M4.659 4.654 L1745.1 4.654 L1745.1 2440.2 L4.659 2440.2 Z" class="ps00"/>
<g id="q1" class="ps00">
<clipPath id="clp2" clip-rule="nonzero">
<path d="M4.653 2445.3 L1745.1 2445.3 L1745.1 4.654 L4.653 4.654 Z"/>
</clipPath>
<g clip-path="url(#clp2)">
<g id="q2" class="ps01">
<g id="xfrm3" transform="matrix(1 0 0 1 1286.2046 1383.6816)">
<path d="M0 0 C11.723 46.94 27.66 88.761 23.461 129.06 C22.281 140.32 10.563 163.8 -1.18 175.52 C45.742 480.58 -185.04 656.58 -398.82 656.58 C-400.66 656.58 -403.42 656.56 -406.22 656.54 C-409.02 656.56 -411.78 656.58 -413.62 656.58 C-627.4 656.58 -858.18 480.58 -811.26 175.52 C-823 163.8 -834.72 140.32 -835.9 129.06 C-840.1 88.761 -824.16 46.94 -812.44 0 C-811.26 -12.199 -823 -100.76 -823 -141.28 C-823 -209.68 -799.54 -235.14 -658.78 -211.66 C-612.1 -211.54 -659.7 -376.82 -616.24 -407.12 C-582.68 -430.5 -523.12 -477.78 -406.22 -471.28 C-289.32 -477.78 -229.76 -430.5 -196.22 -407.12 C-152.74 -376.82 -200.34 -211.54 -153.66 -211.66 C-12.898 -235.14 10.563 -209.68 10.563 -141.28 C10.563 -100.76 -1.18 -12.199 0 0M-483.46 15.761 C-488.02 -33.479 -528.24 -74.859 -587.5 -83.818 C-626.92 -91.158 -690.36 -85.639 -690.36 -85.639 C-717.8 -85.639 -745.54 -47.54 -745.54 -20.12 L-745.54 56.46 C-745.54 92.681 -714.34 111.64 -686.92 111.64 L-588.98 111.64 C-518.14 111.64 -476.56 90.261 -483.46 15.761M-341.96 -130.14 C-359.94 -140.88 -384.96 -124.72 -405.78 -95.459 C-426.6 -124.72 -451.64 -140.88 -469.6 -130.14 C-486.9 -119.8 -485.6 -72.76 -454.02 -26.659 C-442.6 -9.979 -440.08 5.9 -438 20.301 C-433.58 42.16 -418.84 57.58 -406.42 57.58 C-406.22 57.58 -406 57.54 -405.78 57.54 C-405.56 57.54 -405.36 57.58 -405.14 57.58 C-392.72 57.58 -377.98 42.16 -373.58 20.301 C-371.48 5.9 -368.96 -9.979 -357.54 -26.659 C-325.96 -72.76 -324.66 -119.8 -341.96 -130.14M-66.139 -20.12 C-66.139 -47.54 -93.898 -85.639 -121.32 -85.639 C-121.32 -85.639 -184.78 -91.158 -224.2 -83.818 C-283.46 -74.859 -323.68 -33.479 -328.24 15.761 C-335.12 90.261 -293.56 111.64 -222.7 111.64 L-124.78 111.64 C-97.359 111.64 -66.139 92.681 -66.139 56.46 Z" class="ps02"/>
</g>
</g>
</g>
</g>
<text transform="matrix(1 0 0 -1 169.6113 330.9082)"><tspan x="0" y="-0" class="ps03 ps20">2</tspan><tspan x="107.35,139.65,223.25" y="-0" class="ps03 ps20">.12</tspan></text>
<text transform="matrix(1 0 0 -1 169.6113 206.1084)"><tspan x="0,67.496,127.19,188.86,215.7,242.53,271.44,348.5,408.2,462.28" y="-0" class="ps03 ps21">Skull Cave</tspan></text>
<g id="q4" class="ps03 ps10 ps21">
<g id="xfrm5" transform="matrix(1 0 0 1 27 2416.9365)">
<path d="M0 0 L-27 0M1695.8 0 L1722.8 0M0 -2383.9 L-27 -2383.9M1695.8 -2383.9 L1722.8 -2383.9M6 6 L6 33M6 -2389.9 L6 -2416.9M1689.8 6 L1689.8 33M1689.8 -2389.9 L1689.8 -2416.9" class="ps04"/>
</g>
</g>
<g id="q6" class="ps03 ps11 ps21">
<g id="xfrm7" transform="matrix(1 0 0 1 27 2416.9365)">
<path d="M0 0 L-27 0M1695.8 0 L1722.8 0M0 -2383.9 L-27 -2383.9M1695.8 -2383.9 L1722.8 -2383.9M6 6 L6 33M6 -2389.9 L6 -2416.9M1689.8 6 L1689.8 33M1689.8 -2389.9 L1689.8 -2416.9" class="ps05"/>
</g>
</g>
<g id="xfrm8" transform="matrix(1749.78 0 0 2449.94 0 0)">
<g id="frm9" transform="matrix(0.01 0 0 0.01 0 0)">
<text transform="matrix(1 0 0 -1 0 43.5267)"><tspan x="0,9.3475,18.695,28.043,31.642,38.84,46.038,49.638,53.237,57.548,64.746,71.945,75.544,82.017,89.216" y="-0" class="ps06 ps13 ps22">www.pdftron.com</tspan></text>
</g>
</g>
</g>
</svg>
