<?xml version="1.0" encoding="ISO-8859-1"?>
<!-- Generator: PDFTron PDF2SVG Converter (DEMO VERSION) -->
<svg id="svgRoot" version="1.0" baseProfile="Full" viewBox="0 0 1750 2450" xmlns="http://www.w3.org/2000/svg" xmlns:xlink="http://www.w3.org/1999/xlink" xmlns:cs="http://www.pdftron.com/pdf2svg" xml:space="preserve">
<defs>
<font horiz-adv-x="0"><font-face 
  font-family="fnt2"
  units-per-em="2048"
  ascent="927.73"
  descent="-218.26"
/>
<missing-glyph horiz-adv-x="0"/>
<glyph unicode="." horiz-adv-x="569" d="M178,217L392,217L392,-0L178,-0 Z"/>
<glyph unicode="c" horiz-adv-x="1024" d="M977,385L977,385Q949,183,834,77Q719,-29,528,-29Q315,-29,188,124Q61,277,61,536Q61,795,192,948Q324,1102,546,1102Q739,1102,854,996Q969,891,977,706L977,706L804,706L804,706Q793,821,724,884Q655,947,540,947Q404,947,326,837Q249,728,249,536Q249,332,321,229Q393,126,535,126Q640,126,710,193Q781,261,804,385L804,385 Z"/>
<glyph unicode="d" horiz-adv-x="1138" d="M541,-29Q326,-29,199,131Q72,292,72,565Q72,806,195,954Q318,1102,516,1102Q713,1102,828,935L842,915L842,915L842,1470L842,1470L932,1470L1022,1470L1022,1470L1022,-0L1022,-0L939,-0L855,-0L855,-0L855,146L855,146L832,113Q721,-29,541,-29 ZM551,940Q400,940,330,843Q260,747,260,537Q260,339,335,232Q411,125,551,125Q682,125,762,223Q842,322,842,484Q842,703,766,821Q691,940,551,940 Z"/>
<glyph unicode="f" horiz-adv-x="569" d="M357,921L357,921L357,-0L357,-0L267,-0L177,-0L177,-0L177,921L177,921L29,921L29,1070L177,1070L177,1070L177,1252Q177,1371,247,1431Q317,1491,457,1491L536,1488L536,1326L465,1329Q413,1329,385,1295Q357,1262,357,1200L357,1070L357,1070L536,1070L536,921 Z"/>
<glyph unicode="m" horiz-adv-x="1705" d="M133,-0L133,1070L133,1070L218,1070L304,1070L304,1070L304,911L304,911L304,911L341,959Q462,1102,630,1102Q774,1102,859,1017Q897,979,918,930L918,930L947,967Q1063,1102,1224,1102Q1392,1102,1483,1010Q1575,919,1575,751L1575,-0L1575,-0L1485,-0L1395,-0L1395,-0L1395,690Q1395,812,1345,875Q1295,938,1199,938Q1082,938,1013,847Q944,756,944,601L944,601L944,-0L944,-0L854,-0L764,-0L764,-0L764,733Q764,833,718,885Q673,938,586,938Q466,938,389,836Q313,734,313,573L313,573L313,-0L313,-0L223,-0L133,-0 Z"/>
<glyph unicode="n" horiz-adv-x="1138" d="M133,-0L133,1070L133,1070L218,1070L304,1070L304,1070L304,912L304,912L304,912L344,965Q461,1102,637,1102Q814,1102,910,1006Q1006,910,1006,733L1006,-0L1006,-0L916,-0L826,-0L826,-0L826,672Q826,813,771,875Q717,938,595,938Q465,938,389,839Q313,741,313,573L313,573L313,-0L313,-0L223,-0L133,-0 Z"/>
<glyph unicode="o" horiz-adv-x="1138" d="M569,-29Q347,-29,209,127Q72,283,72,536Q72,790,209,946Q347,1102,569,1102Q793,1102,930,946Q1067,790,1067,536Q1067,283,930,127Q793,-29,569,-29 ZM569,126Q711,126,795,237Q879,348,879,536Q879,724,795,835Q711,947,569,947Q427,947,343,835Q260,724,260,536Q260,348,343,237Q427,126,569,126 Z"/>
<glyph unicode="p" horiz-adv-x="1138" d="M119,1070L119,1070L204,1070L290,1070L290,1070L290,918L290,918L299,931Q415,1102,604,1102Q814,1102,936,957Q1059,813,1059,567Q1059,288,935,129Q812,-29,593,-29Q412,-29,305,110L299,118L299,118L299,-423L299,-423L209,-423L119,-423L119,-423 ZM584,127Q725,127,798,233Q871,340,871,544Q871,745,801,841Q731,938,585,938Q436,938,367,829Q299,720,299,484L299,484L299,484L299,484Q299,313,373,220Q447,127,584,127 Z"/>
<glyph unicode="r" horiz-adv-x="681" d="M158,-0L158,1070L158,1070L243,1070L329,1070L329,1070L329,887L329,887L329,887Q352,930,378,965Q480,1102,629,1102Q654,1102,680,1093L680,909L643,910Q497,910,417,822Q338,735,338,573L338,573L338,-0L338,-0L248,-0L158,-0 Z"/>
<glyph unicode="t" horiz-adv-x="569" d="M526,1Q434,-13,392,-13Q274,-13,225,39Q177,91,177,218L177,923L177,923L29,923L29,1070L177,1070L177,1070L177,1370L357,1370L357,1070L357,1070L526,1070L526,923L357,923L357,923L357,218Q357,182,385,161Q414,140,462,140L526,140 Z"/>
<glyph unicode="w" horiz-adv-x="1478" d="M333,-0L29,1070L29,1070L128,1070L227,1070L227,1070L432,218L432,218L432,218L641,1070L741,1070L841,1070L1056,212L1056,212L1056,212L1273,1070L1273,1070L1362,1070L1452,1070L1452,1070L1149,-0L1053,-0L956,-0L735,836L735,836L735,836L526,-0L430,-0 Z"/>
</font>
<font horiz-adv-x="0"><font-face 
  font-family="fnt0"
  units-per-em="1000"
  ascent="1065"
  descent="-210"
/>
<missing-glyph horiz-adv-x="0"/>
<glyph unicode="." horiz-adv-x="170" d="M80,-0L90,-0L90,80L80,80 Z"/>
<glyph unicode="0" horiz-adv-x="605" d="M515,200C515,75,438,-1,302,-1C167,-1,90,75,90,200L90,500C90,625,167,701,303,701C438,701,515,625,515,500 ZM525,500C525,631,444,710,303,710C161,710,80,631,80,500L80,200C80,69,161,-10,302,-10C444,-10,525,69,525,200 Z"/>
<glyph unicode="3" horiz-adv-x="586" d="M496,528C496,642,419,710,283,710C174,710,104,667,80,593L80,700L70,700L70,520L80,520L80,533C80,639,156,701,283,701C413,701,486,636,486,528C486,425,416,355,288,355L224,355L224,346L288,346C416,346,496,285,496,173C496,65,421,-1,288,-1C155,-1,80,65,80,168L80,181L70,181L70,168C70,59,149,-10,288,-10C427,-10,506,59,506,173C506,275,443,337,338,351C440,367,496,433,496,528 Z"/>
<glyph unicode="5" horiz-adv-x="586" d="M80,167C80,58,158,-10,293,-10C428,-10,506,73,506,212C506,352,428,435,293,435C193,435,129,393,101,340L130,691L476,691L476,700L120,700L91,322L101,322C130,383,190,426,293,426C422,426,496,346,496,212C496,79,422,-1,293,-1C164,-1,90,64,90,167L90,168L80,168 Z"/>
</font>
<font horiz-adv-x="0"><font-face 
  font-family="fnt1"
  units-per-em="1000"
  ascent="975"
  descent="-217"
/>
<missing-glyph horiz-adv-x="0"/>
<glyph unicode="T" horiz-adv-x="611" d="M227,582L227,-0L384,-0L384,582L598,582L598,714L13,714L13,582 Z"/>
<glyph unicode="d" horiz-adv-x="611" d="M421,260Q421,228,415,198Q409,168,395,144Q381,121,357,107Q334,93,299,93Q266,93,242,107Q219,122,203,145Q188,169,181,199Q174,229,174,259Q174,291,180,320Q187,350,201,373Q216,396,240,410Q264,424,299,424Q334,424,357,410Q380,396,394,373Q409,351,415,321Q421,292,421,260 ZM423,66L423,-0L558,-0L558,714L416,714L416,454L414,454Q390,492,348,511Q307,531,261,531Q204,531,161,508Q118,486,89,449Q61,412,46,363Q32,315,32,263Q32,209,46,159Q61,109,89,70Q118,32,162,9Q206,-13,264,-13Q315,-13,355,5Q396,24,421,66 Z"/>
<glyph unicode="e" horiz-adv-x="574" d="M402,314L171,314Q172,329,177,348Q183,367,196,384Q210,401,232,412Q255,424,289,424Q341,424,366,396Q392,368,402,314 ZM171,224L544,224Q548,284,534,339Q520,394,488,437Q457,480,408,505Q359,531,293,531Q234,531,185,510Q137,489,102,452Q67,416,48,366Q29,316,29,258Q29,198,47,148Q66,98,100,62Q134,26,183,6Q232,-13,293,-13Q381,-13,443,27Q505,67,535,160L410,160Q403,136,372,114Q341,93,298,93Q238,93,206,124Q174,155,171,224 Z"/>
<glyph unicode="h" horiz-adv-x="593" d="M54,714L54,-0L196,-0L196,271Q196,350,222,384Q248,419,306,419Q357,419,377,387Q397,356,397,292L397,-0L539,-0L539,318Q539,366,530,405Q522,445,501,472Q480,500,443,515Q407,531,350,531Q310,531,268,510Q226,490,199,445L196,445L196,714 Z"/>
<glyph unicode="m" horiz-adv-x="906" d="M58,517L58,-0L200,-0L200,300Q200,338,211,361Q222,385,237,397Q253,410,269,414Q286,419,296,419Q330,419,347,407Q365,396,372,377Q380,358,381,335Q382,313,382,290L382,-0L524,-0L524,288Q524,312,527,335Q531,359,541,377Q552,396,570,407Q589,419,619,419Q649,419,666,409Q684,399,693,382Q702,365,704,342Q706,319,706,293L706,-0L848,-0L848,346Q848,396,834,431Q820,467,795,489Q770,511,735,521Q700,531,659,531Q605,531,565,505Q526,479,503,445Q482,493,441,512Q401,531,352,531Q301,531,261,509Q222,487,194,447L192,447L192,517 Z"/>
<glyph unicode="n" horiz-adv-x="593" d="M54,517L54,-0L196,-0L196,271Q196,350,222,384Q248,419,306,419Q357,419,377,387Q397,356,397,292L397,-0L539,-0L539,318Q539,366,530,405Q522,445,501,472Q480,500,443,515Q407,531,350,531Q305,531,262,510Q219,490,192,445L189,445L189,517 Z"/>
<glyph unicode="o" horiz-adv-x="611" d="M180,258Q180,289,186,319Q192,349,206,372Q221,395,245,409Q269,424,305,424Q341,424,365,409Q390,395,404,372Q419,349,425,319Q431,289,431,258Q431,227,425,197Q419,168,404,144Q390,121,365,107Q341,93,305,93Q269,93,245,107Q221,121,206,144Q192,168,186,197Q180,227,180,258 ZM38,258Q38,196,57,146Q76,96,111,60Q146,25,195,6Q244,-13,305,-13Q366,-13,415,6Q465,25,500,60Q535,96,554,146Q573,196,573,258Q573,320,554,370Q535,421,500,456Q465,492,415,511Q366,531,305,531Q244,531,195,511Q146,492,111,456Q76,421,57,370Q38,320,38,258 Z"/>
<glyph unicode="r" horiz-adv-x="389" d="M54,517L54,-0L196,-0L196,233Q196,268,203,298Q210,328,226,350Q243,373,270,386Q297,399,336,399Q349,399,363,397Q377,396,387,394L387,526Q370,531,356,531Q329,531,304,523Q279,515,257,500Q235,486,218,465Q201,445,191,421L189,421L189,517 Z"/>
<glyph unicode="u" horiz-adv-x="593" d="M539,-0L539,517L397,517L397,246Q397,167,371,132Q345,98,287,98Q236,98,216,129Q196,161,196,225L196,517L54,517L54,199Q54,151,62,111Q71,72,92,44Q113,17,149,2Q186,-13,243,-13Q288,-13,331,7Q374,27,401,72L404,72L404,-0 Z"/>
</font>
</defs>
<style type="text/css">
<![CDATA[
.ps07 { stroke:#000000;fill:none; }
.ps08 { stroke:#97B3FC;fill:none; }
.ps05 { stroke:#FFFFFF;fill:none; }
.ps01 { stroke:none;fill:#100E0C;fill-rule:nonzero; }
.ps04 { stroke:none;fill:#100F0D;fill-rule:evenodd; }
.ps06 { stroke:none;fill:#100F0D;fill-rule:nonzero; }
.ps00 { stroke:none;fill:#9ED1C4;fill-rule:nonzero; }
.ps03 { stroke:none;fill:#FFFFFF;fill-rule:evenodd; }
.ps02 { stroke:none;fill:none; }
.ps14 { stroke-width:0.000001; }
.ps12 { stroke-width:0.25; }
.ps11 { stroke-width:1.25; }
.ps13 { stroke-width:1; }
.ps10 { stroke-width:4;stroke-linecap:round;stroke-linejoin:round; }
.ps20 { 
letter-spacing:-3.8px;word-spacing:3.8;font-family:fnt0;font-size:190px; }
.ps21 { 
letter-spacing:0px;word-spacing:0;font-family:fnt1;font-size:104px; }
.ps22 { 
letter-spacing:0px;word-spacing:0;font-family:fnt2;font-size:12.947px; }
]]>
</style>
<clipPath id="clp1" clip-rule="nonzero">
<rect x="0" y="0" width="1750" height="2450"/>
</clipPath>
<g clip-path="url(#clp1)" transform="matrix(1 0 0 -1 -0 2449.94)">
<path d="M1745.6 8.016 L5.086 8.016 L5.086 2445.8 L1745.6 2445.8 Z" class="ps00"/>
<text transform="matrix(1 0 0 -1 170.04 329.2129)"><tspan x="0,107.54,136.04" y="-0" class="ps01 ps20">3.0</tspan><tspan x="250.99" y="-0" class="ps01 ps20">5</tspan></text>
<text transform="matrix(1 0 0 -1 170.04 204.4131)"><tspan x="0,63.544,125.22,186.89,248.56,312.1,371.8" y="-0" class="ps01 ps21">Thunder</tspan><tspan x="410.38,473.93,537.47,631.7" y="-0" class="ps01 ps21">dome</tspan></text>
<g id="q1" class="ps01 ps21">
<clipPath id="clp2" clip-rule="nonzero">
<path d="M4.653 2445.3 L1745.1 2445.3 L1745.1 4.654 L4.653 4.654 Z"/>
</clipPath>
<g clip-path="url(#clp2)">
<g id="q2" class="ps02">
<g id="q3" class="">
<g id="xfrm4" transform="matrix(1 0 0 1 1090.0337 961.3145)">
<path d="M0 0 L101.63 0 L399.96 -75.402 C399.96 -75.402 270.47 -207.36 91.797 -190.15 L0 -70.486 Z" class="ps03"/>
</g>
</g>
</g>
</g>
</g>
<path d="M762.19 1615.4 L1190 1615.4 L1190 961.31 L762.19 961.31 Z" class="ps03 ps21"/>
<g id="q5" class="ps03 ps21">
<clipPath id="clp3" clip-rule="nonzero">
<path d="M4.653 2445.3 L1745.1 2445.3 L1745.1 4.654 L4.653 4.654 Z"/>
</clipPath>
<g clip-path="url(#clp3)">
<g id="q6" class="ps02">
<g id="xfrm7" transform="matrix(1 0 0 1 261.8516 1563.5107)">
<path d="M0 0 C0 25.014 20.276 45.291 45.307 45.291 C70.337 45.291 90.631 25.014 90.631 0 C90.631 -25.015 70.337 -45.291 45.307 -45.291 C20.276 -45.291 0 -25.015 0 0" class="ps04"/>
</g>
</g>
<g id="q8" class="ps02">
<g id="xfrm9" transform="matrix(1 0 0 1 207.4609 1453.5029)">
<path d="M0 0 C0 0 -10.179 51.767 50.505 51.767 L151.5 51.767 C151.5 51.767 199.41 52.259 199.41 14.245 L199.41 -164.35 C199.41 -164.35 200.85 -177.28 189.05 -177.28 L173.51 -177.28 C173.51 -177.28 163.15 -177.25 163.15 -165.64 L163.15 -16.817 L155.38 -16.817 L155.38 -144.94 L44.03 -144.94 L44.03 -16.817 L36.26 -16.817 L36.26 -166.94 C36.26 -166.94 35.112 -177.28 25.9 -177.28 L9.065 -177.28 C9.065 -177.28 0 -176.3 0 -166.94 Z" class="ps04"/>
</g>
</g>
<g id="q10" class="ps02">
<g id="xfrm11" transform="matrix(1 0 0 1 251.4912 1302.0898)">
<path d="M0 0 L0 -33.637 L0 -271.75 C0 -278.19 5.212 -283.4 11.655 -283.4 L34.964 -283.4 C41.39 -283.4 46.602 -278.19 46.602 -271.75 L46.602 -33.637 L64.732 -33.637 L64.732 -271.75 C64.732 -278.19 69.96 -283.4 76.387 -283.4 L99.696 -283.4 C106.14 -283.4 111.35 -278.19 111.35 -271.75 L111.35 -33.637 L111.35 0 Z" class="ps04"/>
</g>
</g>
<g id="q12" class="ps02">
<g id="xfrm13" transform="matrix(1 0 0 1 479.373 1563.5107)">
<path d="M0 0 C0 25.014 20.293 45.291 45.324 45.291 C70.354 45.291 90.632 25.014 90.632 0 C90.632 -25.015 70.354 -45.291 45.324 -45.291 C20.293 -45.291 0 -25.015 0 0" class="ps04"/>
</g>
</g>
<g id="q14" class="ps02">
<g id="xfrm15" transform="matrix(1 0 0 1 424.9844 1453.5029)">
<path d="M0 0 C0 0 -10.164 51.767 50.504 51.767 L151.5 51.767 C151.5 51.767 199.41 52.259 199.41 14.245 L199.41 -164.35 C199.41 -164.35 200.85 -177.28 189.05 -177.28 L173.51 -177.28 C173.51 -177.28 163.15 -177.25 163.15 -165.64 L163.15 -16.817 L155.38 -16.817 L155.38 -144.94 L44.029 -144.94 L44.029 -16.817 L36.259 -16.817 L36.259 -166.94 C36.259 -166.94 35.128 -177.28 25.899 -177.28 L9.065 -177.28 C9.065 -177.28 0 -176.3 0 -166.94 Z" class="ps04"/>
</g>
</g>
<g id="q16" class="ps02">
<g id="xfrm17" transform="matrix(1 0 0 1 469.0137 1302.0898)">
<path d="M0 0 L0 -33.637 L0 -271.75 C0 -278.19 5.212 -283.4 11.654 -283.4 L34.964 -283.4 C41.39 -283.4 46.619 -278.19 46.619 -271.75 L46.619 -33.637 L64.749 -33.637 L64.749 -271.75 C64.749 -278.19 69.961 -283.4 76.387 -283.4 L99.696 -283.4 C106.14 -283.4 111.35 -278.19 111.35 -271.75 L111.35 -33.637 L111.35 0 Z" class="ps04"/>
</g>
</g>
<g id="q18" class="ps02">
<g id="xfrm19" transform="matrix(1 0 0 1 1405.0337 1563.5107)">
<path d="M0 0 C0 25.014 20.277 45.291 45.309 45.291 C70.336 45.291 90.629 25.014 90.629 0 C90.629 -25.015 70.336 -45.291 45.309 -45.291 C20.277 -45.291 0 -25.015 0 0" class="ps04"/>
</g>
</g>
<g id="q20" class="ps02">
<g id="xfrm21" transform="matrix(1 0 0 1 1350.6431 1453.5029)">
<path d="M0 0 C0 0 -10.18 51.767 50.504 51.767 L151.5 51.767 C151.5 51.767 199.41 52.259 199.41 14.245 L199.41 -164.35 C199.41 -164.35 200.85 -177.28 189.05 -177.28 L173.51 -177.28 C173.51 -177.28 163.15 -177.25 163.15 -165.64 L163.15 -16.817 L155.38 -16.817 L155.38 -144.94 L44.027 -144.94 L44.027 -16.817 L36.258 -16.817 L36.258 -166.94 C36.258 -166.94 35.113 -177.28 25.898 -177.28 L9.063 -177.28 C9.063 -177.28 0 -176.3 0 -166.94 Z" class="ps04"/>
</g>
</g>
<g id="q22" class="ps02">
<g id="xfrm23" transform="matrix(1 0 0 1 1394.6704 1302.0898)">
<path d="M0 0 L0 -33.637 L0 -271.75 C0 -278.19 5.215 -283.4 11.656 -283.4 L34.965 -283.4 C41.391 -283.4 46.605 -278.19 46.605 -271.75 L46.605 -33.637 L64.734 -33.637 L64.734 -271.75 C64.734 -278.19 69.961 -283.4 76.387 -283.4 L99.699 -283.4 C106.14 -283.4 111.35 -278.19 111.35 -271.75 L111.35 -33.637 L111.35 0 Z" class="ps04"/>
</g>
</g>
<g id="q24" class="ps02">
<g id="xfrm25" transform="matrix(1 0 0 1 762.1924 1615.3584)">
<path d="M0 0 L329.48 68.847 L329.48 -724.53 L0 -655.68 Z" class="ps04"/>
</g>
</g>
<g id="q26" class="ps02 ps10">
<g id="xfrm27" transform="matrix(1 0 0 1 935.1626 1602.7363)">
<path d="M0 0 L110.07 19.917 L110.07 -261.52 L0 -264.71 L0 0 Z" class="ps05"/>
</g>
</g>
<g id="q28" class="ps02 ps10">
<g id="xfrm29" transform="matrix(1 0 0 1 801.0576 1578.4766)">
<path d="M0 0 L93.335 16.883 L93.335 -241.64 L0 -244.34 L0 0 Z" class="ps05"/>
</g>
</g>
<g id="q30" class="ps02 ps10">
<g id="xfrm31" transform="matrix(1 0 0 1 935.1626 1237.0137)">
<path d="M0 0 L110.07 -3.195 L110.07 -284.63 L0 -264.71 L0 0 Z" class="ps05"/>
</g>
</g>
<g id="q32" class="ps02 ps10">
<g id="xfrm33" transform="matrix(1 0 0 1 801.0576 1240.8984)">
<path d="M0 0 L93.335 -2.705 L93.335 -261.22 L0 -244.34 L0 0 Z" class="ps05"/>
</g>
</g>
<g id="q34" class="ps02 ps10">
<g id="xfrm35" transform="matrix(1 0 0 1 1024.6978 1288.4355)">
<path d="M0 0 C0 11.621 9.555 21.162 21.488 21.31 C33.566 21.457 43.469 11.917 43.469 0.016 C43.469 -11.885 33.566 -21.424 21.488 -21.294 C9.555 -21.162 0 -11.639 0 0" class="ps03"/>
</g>
</g>
<g id="q36" class="ps02 ps10">
<g id="xfrm37" transform="matrix(1 0 0 1 649.3408 1354.0664)">
<path d="M0 0 L71.379 0 L71.379 -12.852 L87.404 3.172 L71.379 19.197 L71.379 6.347 L0 6.347 Z" class="ps06"/>
</g>
</g>
<g id="q38" class="ps02 ps10">
<g id="xfrm39" transform="matrix(1 0 0 1 1228.0083 1354.0664)">
<path d="M0 0 L71.379 0 L71.379 -12.852 L87.404 3.172 L71.379 19.197 L71.379 6.347 L0 6.347 Z" class="ps06"/>
</g>
</g>
</g>
</g>
<g id="q40" class="ps03 ps11 ps21">
<g id="xfrm41" transform="matrix(1 0 0 1 27 2416.9365)">
<path d="M0 0 L-27 0M1695.8 0 L1722.8 0M0 -2383.9 L-27 -2383.9M1695.8 -2383.9 L1722.8 -2383.9M6 6 L6 33M6 -2389.9 L6 -2416.9M1689.8 6 L1689.8 33M1689.8 -2389.9 L1689.8 -2416.9" class="ps05"/>
</g>
</g>
<g id="q42" class="ps03 ps12 ps21">
<g id="xfrm43" transform="matrix(1 0 0 1 27 2416.9365)">
<path d="M0 0 L-27 0M1695.8 0 L1722.8 0M0 -2383.9 L-27 -2383.9M1695.8 -2383.9 L1722.8 -2383.9M6 6 L6 33M6 -2389.9 L6 -2416.9M1689.8 6 L1689.8 33M1689.8 -2389.9 L1689.8 -2416.9" class="ps07"/>
</g>
</g>
<g id="xfrm44" transform="matrix(1749.78 0 0 2449.94 0 0)">
<g id="frm45" transform="matrix(0.01 0 0 0.01 0 0)">
<text transform="matrix(1 0 0 -1 0 43.5267)"><tspan x="0,9.3475,18.695,28.043,31.642,38.84,46.038,49.638,53.237,57.548,64.746,71.945,75.544,82.017,89.216" y="-0" class="ps08 ps14 ps22">www.pdftron.com</tspan></text>
</g>
</g>
</g>
</svg>
